<?xml version="1.0" encoding="utf-8"?>
<!-- Generator: Adobe Illustrator 15.0.0, SVG Export Plug-In . SVG Version: 6.00 Build 0)  -->
<!DOCTYPE svg PUBLIC "-//W3C//DTD SVG 1.1//EN" "http://www.w3.org/Graphics/SVG/1.1/DTD/svg11.dtd">
<svg version="1.1" id="Ebene_1" xmlns="http://www.w3.org/2000/svg" xmlns:xlink="http://www.w3.org/1999/xlink" x="0px" y="0px"
	 width="195.892px" height="194.595px" viewBox="0 0 195.892 194.595" enable-background="new 0 0 195.892 194.595"
	 xml:space="preserve">
<g display="none">
	<polygon display="inline" fill="#717295" points="20.166,84.861 50.329,177.692 147.936,177.692 178.097,84.861 99.131,27.489 	"/>
	<g display="inline">
		<defs>
			<rect id="SVGID_1_" x="19.108" y="12.018" width="160.048" height="166.577"/>
		</defs>
		<clipPath id="SVGID_2_">
			<use xlink:href="#SVGID_1_"  overflow="visible"/>
		</clipPath>
		<polygon clip-path="url(#SVGID_2_)" fill="none" stroke="#003564" stroke-width="1.8" stroke-miterlimit="10" points="
			147.936,177.692 178.098,84.861 99.131,27.489 20.166,84.861 50.328,177.692 		"/>
	</g>
	<polygon display="inline" fill="#003564" points="135.137,153.524 135.137,38.22 99.856,13.129 66.28,37.948 66.28,153.749 	"/>
	<g display="inline">
		<defs>
			<rect id="SVGID_3_" x="19.108" y="12.018" width="160.048" height="166.577"/>
		</defs>
		<clipPath id="SVGID_4_">
			<use xlink:href="#SVGID_3_"  overflow="visible"/>
		</clipPath>
		<polygon clip-path="url(#SVGID_4_)" fill="none" stroke="#717295" stroke-width="1.8" stroke-miterlimit="10" points="
			135.137,153.524 135.137,38.22 99.856,13.129 66.28,37.948 66.28,153.749 		"/>
		
			<line clip-path="url(#SVGID_4_)" fill="none" stroke="#717295" stroke-width="1.8" stroke-miterlimit="10" x1="99.875" y1="149.772" x2="99.875" y2="13.787"/>
	</g>
	<polygon display="inline" fill="#D8E4EB" points="128.454,103.588 128.454,91.809 107.351,78.104 107.351,91.072 	"/>
	<polygon display="inline" fill="#3D4365" points="44.631,86.678 44.631,160.428 50.27,177.692 113.151,177.529 113.489,86.894 
		78.208,66.955 	"/>
	<g display="inline">
		<defs>
			<rect id="SVGID_5_" x="19.108" y="12.018" width="160.048" height="166.577"/>
		</defs>
		<clipPath id="SVGID_6_">
			<use xlink:href="#SVGID_5_"  overflow="visible"/>
		</clipPath>
		<polygon clip-path="url(#SVGID_6_)" fill="none" stroke="#717295" stroke-width="1.8" stroke-miterlimit="10" points="
			113.151,177.529 113.489,86.894 78.208,66.955 44.631,86.678 44.631,160.428 50.269,177.692 		"/>
		
			<line clip-path="url(#SVGID_6_)" fill="none" stroke="#717295" stroke-width="1.8" stroke-miterlimit="10" x1="78.08" y1="67.566" x2="78.08" y2="178.165"/>
	</g>
	<polygon display="inline" fill="#FFFFFF" points="167.526,111.25 131.987,97.164 97.643,111.157 97.512,175.862 146.733,175.993 	
		"/>
	<g display="inline">
		<defs>
			<rect id="SVGID_7_" x="19.108" y="12.018" width="160.048" height="166.577"/>
		</defs>
		<clipPath id="SVGID_8_">
			<use xlink:href="#SVGID_7_"  overflow="visible"/>
		</clipPath>
		<polygon clip-path="url(#SVGID_8_)" fill="none" stroke="#003564" stroke-width="1.8" stroke-miterlimit="10" points="
			167.526,111.25 131.987,97.164 97.643,111.157 97.512,175.862 146.733,175.993 		"/>
		
			<line clip-path="url(#SVGID_8_)" fill="none" stroke="#003564" stroke-width="1.8" stroke-miterlimit="10" x1="132.158" y1="97.737" x2="132.158" y2="175.91"/>
	</g>
	<polygon display="inline" fill="#D8E4EB" points="128.454,55.698 128.454,43.919 107.351,28.806 107.351,40.366 	"/>
	<polygon display="inline" fill="#D8E4EB" points="128.454,79.817 128.454,68.038 107.351,54.333 107.351,65.893 	"/>
	<polygon display="inline" fill="#003564" points="97.614,130.652 132.049,117.166 161.387,126.29 163.043,120.016 132.049,108.816 
		97.622,123.446 	"/>
	<polygon display="inline" fill="none" stroke="#003564" stroke-width="1.759" stroke-miterlimit="10" points="97.614,130.652 
		132.049,117.166 161.387,126.29 163.043,120.016 132.049,108.816 97.622,123.446 	"/>
	<polygon display="inline" fill="#003564" points="97.973,150.864 132.475,140.31 156.116,146.475 157.777,140.162 132.475,131.91 
		97.981,143.614 	"/>
	<polygon display="inline" fill="none" stroke="#003564" stroke-width="1.759" stroke-miterlimit="10" points="97.973,150.864 
		132.475,140.31 156.116,146.475 157.777,140.162 132.475,131.91 97.981,143.614 	"/>
	<polygon display="inline" fill="#003564" points="97.614,172.598 132.219,164.992 148.717,168.169 151.095,161.804 
		132.219,156.521 97.624,165.284 	"/>
	<polygon display="inline" fill="none" stroke="#003564" stroke-width="1.759" stroke-miterlimit="10" points="97.614,172.598 
		132.219,164.992 148.717,168.169 151.095,161.804 132.219,156.521 97.624,165.284 	"/>
	<polygon display="inline" fill="#FFFFFF" points="105.394,103.35 105.394,91.57 84.291,80.683 84.291,92.242 	"/>
	<polygon display="inline" fill="#FFFFFF" points="50.309,103.35 50.309,91.57 71.412,80.683 71.412,92.242 	"/>
	<polygon display="inline" fill="#FFFFFF" points="50.309,134.271 50.309,122.492 71.412,114.421 71.412,127.391 	"/>
	<polygon display="inline" fill="#FFFFFF" points="50.309,164.552 50.309,152.772 71.412,147.519 71.412,160.487 	"/>
	<polygon display="inline" fill="#D8E4EB" points="72.209,55.698 72.209,43.919 93.312,28.806 93.312,40.366 	"/>
</g>
<g display="none">
	<polygon display="inline" fill="#003564" points="19.167,80.894 49.32,173.695 146.897,173.695 177.049,80.894 98.106,23.539 	"/>
	<g display="inline">
		<defs>
			<rect id="SVGID_9_" x="18.108" y="22.425" width="160" height="152.17"/>
		</defs>
		<clipPath id="SVGID_10_">
			<use xlink:href="#SVGID_9_"  overflow="visible"/>
		</clipPath>
		<polygon clip-path="url(#SVGID_10_)" fill="none" stroke="#003564" stroke-width="1.8" stroke-miterlimit="10" points="
			146.897,173.694 177.049,80.895 98.106,23.539 19.167,80.895 49.319,173.694 		"/>
	</g>
	<polygon display="inline" fill="#FFFFFF" points="44.068,62.737 27.357,98.213 27.357,108.408 47.801,108.408 60.78,50.911 	"/>
	<polygon display="inline" fill="none" stroke="#003564" stroke-width="1.8" stroke-miterlimit="10" points="44.068,62.737 
		27.357,98.213 27.357,108.408 47.801,108.408 60.78,50.911 	"/>
	<polyline display="inline" fill="#717295" points="47.432,60.465 98.017,23.538 149.696,61.175 	"/>
	<g display="inline">
		<defs>
			<rect id="SVGID_11_" x="18.108" y="22.425" width="160" height="152.17"/>
		</defs>
		<clipPath id="SVGID_12_">
			<use xlink:href="#SVGID_11_"  overflow="visible"/>
		</clipPath>
		<polyline clip-path="url(#SVGID_12_)" fill="none" stroke="#003564" stroke-width="1.8" stroke-miterlimit="10" points="
			47.432,60.465 98.017,23.538 149.696,61.175 		"/>
	</g>
	<polygon display="inline" fill="#FFFFFF" points="151.731,62.337 168.442,97.812 168.442,108.008 147.999,108.008 135.018,50.511 	
		"/>
	<polygon display="inline" fill="none" stroke="#003564" stroke-width="1.8" stroke-miterlimit="10" points="151.731,62.337 
		168.442,97.812 168.442,108.008 147.999,108.008 135.018,50.511 	"/>
	<polygon display="inline" fill="#717295" points="140.954,119.731 49.213,119.731 49.213,60.79 112.139,60.79 116.12,53.138 
		138.4,53.138 140.954,54.96 	"/>
	<polygon display="inline" fill="none" stroke="#003564" stroke-width="1.8" stroke-miterlimit="10" points="140.954,119.731 
		49.213,119.731 49.213,60.79 112.139,60.79 116.12,53.138 138.4,53.138 140.954,54.96 	"/>
	<polygon display="inline" fill="#717295" points="147.805,135.69 45.866,135.69 45.866,70.195 115.787,70.195 120.208,61.691 
		147.805,61.691 	"/>
	<polygon display="inline" fill="none" stroke="#003564" stroke-width="1.8" stroke-miterlimit="10" points="147.805,135.69 
		45.866,135.69 45.866,70.195 115.787,70.195 120.208,61.691 147.805,61.691 	"/>
	<polygon display="inline" fill="#717295" points="153.471,152.061 40.2,152.061 40.2,79.284 117.894,79.284 122.807,69.835 
		153.471,69.835 	"/>
	<polygon display="inline" fill="none" stroke="#003564" stroke-width="1.8" stroke-miterlimit="10" points="153.471,152.061 
		40.2,152.061 40.2,79.284 117.894,79.284 122.807,69.835 153.471,69.835 	"/>
	<polygon display="inline" fill="#717295" points="161.081,169.325 35.218,169.325 35.218,88.458 121.549,88.458 127.008,77.958 
		161.081,77.958 	"/>
	<polygon display="inline" fill="none" stroke="#003564" stroke-width="1.8" stroke-miterlimit="10" points="161.081,169.325 
		35.218,169.325 35.218,88.458 121.549,88.458 127.008,77.958 161.081,77.958 	"/>
	<rect x="113.866" y="117.812" display="inline" fill="#D8E4EB" width="39.043" height="24.496"/>
	
		<rect x="113.866" y="117.812" display="inline" fill="none" stroke="#003564" stroke-width="1.8" stroke-miterlimit="10" width="39.043" height="24.496"/>
	<path display="inline" fill="none" stroke="#003564" stroke-width="1.8" stroke-miterlimit="10" d="M120.444,133.833h26.364
		 M120.444,126.003h26.364"/>
	<rect x="30.126" y="95.599" display="inline" fill="#FFFFFF" width="135.417" height="8.991"/>
	<rect x="26.948" y="99.064" display="inline" fill="#D8E4EB" width="141.493" height="8.943"/>
	
		<rect x="26.948" y="99.064" display="inline" fill="none" stroke="#003564" stroke-width="1.8" stroke-miterlimit="10" width="141.493" height="8.943"/>
	
		<line display="inline" fill="none" stroke="#003564" stroke-width="1.8" stroke-miterlimit="10" x1="34.275" y1="94.55" x2="161.683" y2="94.55"/>
	<path display="inline" fill="none" stroke="#003564" stroke-width="1.8" stroke-miterlimit="10" d="M76.466,39.192h43.132
		 M64.596,48.15h66.703"/>
</g>
<g display="none">
	<polygon display="inline" fill="#717295" points="18.167,83.639 48.077,175.695 144.87,175.695 174.78,83.639 96.471,26.746 	"/>
	<g display="inline">
		<defs>
			<rect id="SVGID_13_" x="17.108" y="21.594" width="158.73" height="155.001"/>
		</defs>
		<clipPath id="SVGID_14_">
			<use xlink:href="#SVGID_13_"  overflow="visible"/>
		</clipPath>
		<polygon clip-path="url(#SVGID_14_)" fill="none" stroke="#003564" stroke-width="1.8" stroke-miterlimit="10" points="
			144.87,175.694 174.78,83.639 96.472,26.746 18.166,83.639 48.077,175.694 		"/>
	</g>
	<polygon display="inline" fill="#003564" points="59.78,21.593 29.84,119.67 48.055,175.727 136.387,175.727 169.694,72.383 
		155.546,48.799 	"/>
	<polyline display="inline" fill="#717295" points="154.782,51.159 147.12,69.999 167.288,72.214 	"/>
	<path display="inline" fill="none" stroke="#FFFFFF" stroke-width="6" stroke-miterlimit="10" d="M61.272,54.364l32.71,8.767
		 M65.228,39.628l32.71,8.767 M58.067,150.726L104,163.506 M106.673,115.617l32.627,9.078 M110.77,100.918l32.625,9.078
		 M107.6,147.702l23.469,6.531 M111.694,133.005l23.471,6.53 M73.646,138.255l23.468,6.53 M77.741,123.558l23.468,6.529
		 M39.448,128.739l23.469,6.53 M43.542,114.041l23.468,6.53 M47.678,99.201l45.932,12.78 M51.772,84.502l45.934,12.782"/>
</g>
<g display="none">
	<polygon display="inline" fill="#003564" points="46.265,172.517 16.227,80.066 94.87,22.93 173.511,80.066 143.473,172.517 	"/>
	<g display="inline">
		<defs>
			<rect id="SVGID_15_" x="15.108" y="21.753" width="169.227" height="162.842"/>
		</defs>
		<clipPath id="SVGID_16_">
			<use xlink:href="#SVGID_15_"  overflow="visible"/>
		</clipPath>
		<polygon clip-path="url(#SVGID_16_)" fill="none" stroke="#003564" stroke-width="1.904" stroke-miterlimit="10" points="
			46.265,172.517 16.227,80.066 94.87,22.93 173.511,80.066 143.473,172.517 		"/>
	</g>
	<polyline display="inline" fill="#003564" points="147.212,183.399 183.071,74.535 165.402,72.238 	"/>
	<g display="inline">
		<defs>
			<rect id="SVGID_17_" x="15.108" y="21.753" width="169.227" height="162.842"/>
		</defs>
		<clipPath id="SVGID_18_">
			<use xlink:href="#SVGID_17_"  overflow="visible"/>
		</clipPath>
		<polyline clip-path="url(#SVGID_18_)" fill="none" stroke="#717295" stroke-width="1.904" stroke-miterlimit="10" points="
			147.212,183.399 183.071,74.535 165.402,72.238 		"/>
	</g>
	<polyline display="inline" fill="#717295" points="150.715,83.921 155.506,70.699 181.844,74.592 164.038,102.695 143.831,99.797 	
		"/>
	<g display="inline">
		<defs>
			<rect id="SVGID_19_" x="15.108" y="21.753" width="169.227" height="162.842"/>
		</defs>
		<clipPath id="SVGID_20_">
			<use xlink:href="#SVGID_19_"  overflow="visible"/>
		</clipPath>
		<polyline clip-path="url(#SVGID_20_)" fill="none" stroke="#717295" stroke-width="1.904" stroke-miterlimit="10" points="
			150.715,83.921 155.506,70.699 181.844,74.592 164.038,102.695 143.831,99.797 		"/>
	</g>
	<polygon display="inline" fill="#717295" points="47.687,166.216 148.538,183.55 165.827,58.615 119.72,51.213 108.194,63.186 
		54.218,56.874 20.27,81.753 	"/>
	<g display="inline">
		<defs>
			<rect id="SVGID_21_" x="15.108" y="21.753" width="169.227" height="162.842"/>
		</defs>
		<clipPath id="SVGID_22_">
			<use xlink:href="#SVGID_21_"  overflow="visible"/>
		</clipPath>
		<polygon clip-path="url(#SVGID_22_)" fill="none" stroke="#FFFFFF" stroke-width="1.8" stroke-miterlimit="10" points="
			47.687,166.216 148.538,183.55 165.827,58.615 119.72,51.213 108.194,63.186 54.218,56.874 20.27,81.753 		"/>
	</g>
	<polygon display="inline" fill="#D8E4EB" points="83.914,122.836 141.401,131.756 145.934,96.423 88.446,87.503 	"/>
	<polygon display="inline" fill="none" stroke="#003564" stroke-width="1.904" stroke-miterlimit="10" points="83.914,122.836 
		141.401,131.756 145.934,96.423 88.446,87.503 	"/>
	<path display="inline" fill="none" stroke="#003564" stroke-width="1.904" stroke-miterlimit="10" d="M136.336,118.897
		l-42.666-7.231 M138.059,106.449L95.393,99.22"/>
</g>
<g display="none">
	<polygon display="inline" fill="#717295" points="18.167,81.893 48.32,174.695 145.897,174.695 176.049,81.893 97.107,24.539 	"/>
	<g display="inline">
		<defs>
			<rect id="SVGID_23_" x="17.108" y="23.426" width="160" height="152.169"/>
		</defs>
		<clipPath id="SVGID_24_">
			<use xlink:href="#SVGID_23_"  overflow="visible"/>
		</clipPath>
		<polygon clip-path="url(#SVGID_24_)" fill="none" stroke="#003564" stroke-width="1.8" stroke-miterlimit="10" points="
			145.896,174.694 176.05,81.893 97.106,24.539 18.166,81.893 48.319,174.694 		"/>
		<path clip-path="url(#SVGID_24_)" fill="#003564" d="M64.627,114.522c0,0-19.896,16.864-27.382,24.556
			c1.963,5.34,2.74,8.556,4.768,13.365c9.491-4.558,34.945-19.12,34.945-19.12"/>
		<path clip-path="url(#SVGID_24_)" fill="none" stroke="#003564" stroke-width="1.8" stroke-miterlimit="10" d="M64.627,114.522
			c0,0-19.896,16.864-27.382,24.556c1.963,5.34,2.74,8.556,4.768,13.365c9.491-4.558,34.945-19.12,34.945-19.12"/>
		<path clip-path="url(#SVGID_24_)" fill="#003564" d="M69.73,127.487c17.054,27.17,47.179,39.327,69.011,28.573
			c1.119-0.551,15.448-9.459,16.52-10.133c21.998-13.795,25.299-48.135,7.367-76.696c-17.931-28.563-50.301-40.535-72.298-26.74
			c-1.061,0.665-15.305,9.673-16.278,10.431C54.828,67.878,52.662,100.299,69.73,127.487"/>
		<path clip-path="url(#SVGID_24_)" fill="none" stroke="#003564" stroke-width="1.8" stroke-miterlimit="10" d="M69.73,127.487
			c17.054,27.17,47.179,39.327,69.011,28.573c1.119-0.551,15.448-9.459,16.52-10.133c21.998-13.795,25.299-48.135,7.367-76.696
			c-17.931-28.563-50.301-40.535-72.298-26.74c-1.061,0.665-15.305,9.673-16.278,10.431C54.828,67.878,52.662,100.299,69.73,127.487
			z"/>
		<path clip-path="url(#SVGID_24_)" fill="#717295" d="M75.392,124.476c15.948,25.371,42.595,37.347,59.52,26.749
			c16.921-10.597,17.71-39.756,1.763-65.126c-15.949-25.371-42.598-37.347-59.518-26.751
			C60.233,69.946,59.442,99.104,75.392,124.476"/>
		<path clip-path="url(#SVGID_24_)" fill="none" stroke="#003564" stroke-width="1.8" stroke-miterlimit="10" d="M75.392,124.476
			c15.948,25.371,42.595,37.347,59.52,26.749c16.921-10.597,17.71-39.756,1.763-65.126c-15.949-25.371-42.598-37.347-59.518-26.751
			C60.233,69.946,59.442,99.104,75.392,124.476z"/>
		<path clip-path="url(#SVGID_24_)" fill="#D8E4EB" d="M81.817,120.459c15.118,24.042,39.648,35.851,54.789,26.373
			c15.139-9.477,15.153-36.65,0.034-60.691C121.521,62.099,96.99,50.29,81.853,59.766C66.714,69.243,66.697,96.417,81.817,120.459"
			/>
		<path clip-path="url(#SVGID_24_)" fill="none" stroke="#003564" stroke-width="1.8" stroke-miterlimit="10" d="M81.817,120.459
			c15.118,24.042,39.648,35.851,54.789,26.373c15.139-9.477,15.153-36.65,0.034-60.691C121.521,62.099,96.99,50.29,81.853,59.766
			C66.714,69.243,66.697,96.417,81.817,120.459z"/>
		<path clip-path="url(#SVGID_24_)" fill="#FFFFFF" d="M91.828,109.212c-6.985-23.302,6.039-28.885,0-39.409
			c-5.818-10.141-19.777,1.848-15.32,23.915C80.963,115.785,97.951,129.641,91.828,109.212"/>
	</g>
</g>
<g display="none">
	<polygon display="inline" fill="#D8E4EB" points="17.167,81.972 47.567,174.693 145.143,174.433 175.051,81.552 95.957,24.406 	"/>
	<g display="inline">
		<defs>
			<rect id="SVGID_25_" x="16.108" y="23.295" width="160" height="152.3"/>
		</defs>
		<clipPath id="SVGID_26_">
			<use xlink:href="#SVGID_25_"  overflow="visible"/>
		</clipPath>
		<polygon clip-path="url(#SVGID_26_)" fill="none" stroke="#003564" stroke-width="1.8" stroke-miterlimit="10" points="
			47.567,174.692 17.167,81.972 95.957,24.407 175.051,81.552 145.145,174.432 		"/>
	</g>
	<polygon display="inline" fill="#003564" points="18.188,58.82 56.496,174.692 145.145,174.432 175.051,81.551 106.551,32.06 	"/>
	<g display="inline">
		<defs>
			<rect id="SVGID_27_" x="16.108" y="23.295" width="160" height="152.3"/>
		</defs>
		<clipPath id="SVGID_28_">
			<use xlink:href="#SVGID_27_"  overflow="visible"/>
		</clipPath>
		<polygon clip-path="url(#SVGID_28_)" fill="none" stroke="#003564" stroke-width="1.8" stroke-miterlimit="10" points="
			18.188,58.82 106.55,32.06 175.051,81.551 145.145,174.433 56.496,174.692 		"/>
		<path clip-path="url(#SVGID_28_)" fill="none" stroke="#FFFFFF" stroke-width="6" stroke-miterlimit="10" d="M33.468,75.91
			L68.3,65.323l62.974,33.031l39.261-12.525 M116.949,53.641l8.983-2.674 M42.412,105.517l35.344-10.666l63.681,38.496l14.177-4.306
			 M60.494,165.377l34.819-10.63l23.407-100.163l-1.502-0.466L86.57,125.801l-34.825,10.613"/>
	</g>
</g>
<g display="none">
	<polygon display="inline" fill="#003564" points="19.166,82.894 49.32,175.695 146.897,175.695 177.049,82.894 98.11,25.539 	"/>
	<g display="inline">
		<defs>
			<rect id="SVGID_29_" x="18.108" y="23.353" width="160" height="153.242"/>
		</defs>
		<clipPath id="SVGID_30_">
			<use xlink:href="#SVGID_29_"  overflow="visible"/>
		</clipPath>
		<polygon clip-path="url(#SVGID_30_)" fill="none" stroke="#003564" stroke-width="1.8" stroke-miterlimit="10" points="
			49.32,175.694 19.166,82.894 98.11,25.539 177.049,82.894 146.897,175.694 		"/>
		<path clip-path="url(#SVGID_30_)" fill="#FFFFFF" d="M164.583,112.977c-7.414,36.931-43.361,60.859-80.292,53.448
			c-36.931-7.413-60.86-43.36-53.448-80.291c7.414-36.931,43.36-60.858,80.292-53.447C148.064,40.1,171.995,76.047,164.583,112.977"
			/>
		
			<circle clip-path="url(#SVGID_30_)" fill="none" stroke="#003564" stroke-width="1.8" stroke-miterlimit="10" cx="97.713" cy="99.555" r="68.203"/>
		<path clip-path="url(#SVGID_30_)" fill="#717295" d="M50.765,173.777c0,0-0.817-12.409,29.037-3.493l-1.035,3.462L50.765,173.777z
			"/>
		<path clip-path="url(#SVGID_30_)" fill="#D8E4EB" d="M112.28,52.235c0,0-20.777-1.731-23.663,3.463
			c-2.885,5.194-0.962,14.428-7.407,19.334c-6.444,4.906-7.155,11.143-2.9,15.005c4.254,3.863,11.199,3.175,13.783-4.617
			c2.585-7.791,19.868-17.219,14.689-4.857c-5.18,12.36-23.646,31.27-31.149,21.383c-7.504-9.887-3.167-20.276-8.942-17.391
			c-5.776,2.886-2.024,14.331-5.198,20.15c-3.175,5.821-12.226,1.203-16.502,6.976c-4.277,5.771-8.055,12.944-4.34,21.369
			c4.089,9.271,22.671,28.674,43.306,31.416c12.585-7.749,16.78-8.345,17.358-17.29c0.576-8.946,15.582-14.719,15.293-2.31
			c-0.289,12.408,2.229,14.58,6.684,10.826c4.456-3.755,57.631-46.114,17.93-98.61c-18.109-23.946-21.382-18.296-21.382-18.296
			S125.891,52.276,112.28,52.235"/>
		<path clip-path="url(#SVGID_30_)" fill="#717295" d="M147.518,100.344c0,0-8.844,10.666-18.18,9.363s-12.697,0.495-4.329,14.059
			c8.369,13.562,13.107,10.547,7.132,21.289c-5.978,10.742,8.451,2.95,13.646-17.249
			C150.981,107.605,153.579,91.062,147.518,100.344"/>
		<path clip-path="url(#SVGID_30_)" fill="#003564" d="M155.53,93.922c0,0-5.752,12.026-11.543,18.555
			c-3.063,3.453-10.457,5.049-14.717,5.14c-4.261,0.09,2.577,14.161,13.127,15.587C149.827,134.206,155.53,93.922,155.53,93.922"/>
		<path clip-path="url(#SVGID_30_)" fill="none" stroke="#003564" stroke-width="0.9" stroke-miterlimit="10" d="M80.09,165.121
			c-69.05-20.98-33.708-135.044,35.932-131.555"/>
		<path clip-path="url(#SVGID_30_)" fill="#717295" d="M110.87,72.4c-8.335-3.555-12.408-0.578-17.602,5.193s-8.53,9.812-4.842,0
			S98.981,66.917,98.866,62.3c-0.115-4.616,12.293-3.463,16.333,0s3.462,15.006,15.005,14.141
			c11.543-0.866,10.68,18.757-1.73,18.469c-12.41-0.289-26.043,5.483-21.535-3.463C111.448,82.5,116.406,74.761,110.87,72.4"/>
		<path clip-path="url(#SVGID_30_)" fill="#717295" d="M82.878,135.631c10.313,5.157,7.736,1.155,14.835-1.154
			c7.098-2.308,9.7-5.771,14.891-5.482c5.191,0.288,4.039-1.154,8.654,4.905c4.617,6.061,4.839,14.847,0,10.966
			c-4.838-3.881-0.288-12.12-10.389-10.677c-10.1,1.442-9.235,10.389-18.469,9.523c-9.233-0.867-27.979,6.059-27.119-2.021
			c0.86-8.08-8.952-5.389-10.394-9.042c-1.443-3.654,7.327-1.128,14.428-2.211C76.417,129.355,78.838,133.61,82.878,135.631"/>
		<path clip-path="url(#SVGID_30_)" fill="#717295" d="M68.099,117.197c3.772-0.851,11.33-0.578,10.712-3.175
			c-0.617-2.596,7.172-8.656,8.039-4.04c0.866,4.617-4.612,14.429-9.376,14.429C72.71,124.411,63.564,118.221,68.099,117.197"/>
		<path clip-path="url(#SVGID_30_)" fill="none" stroke="#003564" stroke-width="0.9" stroke-miterlimit="10" d="M85.184,166.057
			c49.026-7.951,74.015-110.105,35.808-131.438 M120.682,34.403c-25.568-5.98-61.798,107.051-39.969,130.538"/>
		<path clip-path="url(#SVGID_30_)" fill="#003564" d="M122.454,80.119c-4.092-3.406,9.433-2.011,10.293,2.192
			c0.857,4.203,2.857,6.529-1.221,8.572c-4.08,2.042-20.816,3.631-15.207,0.749C123.396,87.998,125.061,82.287,122.454,80.119"/>
		<path clip-path="url(#SVGID_30_)" fill="#003564" d="M101.954,62.877c1.924-3.129,12.092-0.374,12.379,2.699
			c0.288,3.073-2.857,4.516-6.188,3.073C104.811,67.206,98.232,68.937,101.954,62.877"/>
		<path clip-path="url(#SVGID_30_)" fill="#003564" d="M112.942,83.654c2.58-2.886,7.386-4.729,6.908,0
			c-0.478,4.729-5.158,6.638-6.908,6.35C111.192,89.715,112.942,83.654,112.942,83.654"/>
		<path clip-path="url(#SVGID_30_)" fill="#003564" d="M77.403,118.605c0,0-5.88,4.557-0.497,3.776
			c5.384-0.781,7.092-6.95,7.092-8.682S80.906,118.029,77.403,118.605"/>
		<path clip-path="url(#SVGID_30_)" fill="#003564" d="M68.738,140.826c-1.931-2.536-1.153-5.197-4.616-6.06
			c-3.464-0.867,5.234-3.065,8.645-2.119c3.411,0.947,5.781,6.447,9.822,6.735s6.059,2.886,9.812,1.443
			c3.752-1.443,6.696-6.349,9.552-6.638c2.857-0.289,11.998-5.867,16.478-1.772c4.478,4.096,2.786,3.832-2.407,0.231
			s-8.752,2.458-15.178,3.441c-6.425,0.985-0.542,7.334-15.315,5.17C70.759,139.094,73.354,146.887,68.738,140.826"/>
		<path clip-path="url(#SVGID_30_)" fill="#717295" d="M111.868,31.463c0,0,2.031-7.197,6.963-7.21
			c4.024-0.012,4.824,4.9,4.371,7.182c57.156,35.93,44.371,139.154-36.411,139.379c-0.622,1.888-0.905,3.412-0.518,4.842
			l-8.176,0.023c0,0,3.568-4.989,3.554-9.401C154.375,168.745,177.252,69.515,111.868,31.463"/>
		<path clip-path="url(#SVGID_30_)" fill="none" stroke="#003564" stroke-width="1.8" stroke-miterlimit="10" d="M111.868,31.463
			c0,0,2.031-7.197,6.963-7.21c4.024-0.012,4.824,4.9,4.371,7.182c57.156,35.93,44.371,139.154-36.411,139.379
			c-0.622,1.888-0.905,3.412-0.518,4.842l-8.176,0.023c0,0,3.568-4.989,3.554-9.401C154.375,168.745,177.252,69.515,111.868,31.463z
			"/>
	</g>
</g>
<g display="none">
	<polygon display="inline" fill="#003564" points="19.167,83.888 49.318,176.689 146.895,176.689 177.049,83.888 98.11,26.532 	"/>
	<g display="inline">
		<defs>
			<rect id="SVGID_31_" x="18.108" y="25.421" width="160" height="152.174"/>
		</defs>
		<clipPath id="SVGID_32_">
			<use xlink:href="#SVGID_31_"  overflow="visible"/>
		</clipPath>
		<polygon clip-path="url(#SVGID_32_)" fill="none" stroke="#003564" stroke-width="1.8" stroke-miterlimit="10" points="
			49.318,176.689 19.167,83.888 98.109,26.533 177.05,83.888 146.895,176.689 		"/>
		<path clip-path="url(#SVGID_32_)" fill="#FFFFFF" d="M146.915,176.689h-97.59L19.169,83.835c0,0,13.745-10.491,40.808-29.662
			c11.711-2.943,22.827-3.392,35.455-0.855c36.881,7.407,63.214,37.976,66.909,73.537
			C163.192,135.062,146.915,176.689,146.915,176.689"/>
		<path clip-path="url(#SVGID_32_)" fill="none" stroke="#003564" stroke-width="1.8" stroke-miterlimit="10" d="M146.915,176.689
			h-97.59L19.169,83.835c0,0,13.745-10.491,40.808-29.662c11.711-2.943,22.827-3.392,35.455-0.855
			c36.881,7.407,63.214,37.976,66.909,73.537C163.192,135.062,146.915,176.689,146.915,176.689z"/>
		<path clip-path="url(#SVGID_32_)" fill="#D8E4EB" d="M96.969,76.582c0,0-25.531-2.127-29.076,4.255
			c-3.547,6.383-1.185,17.729-9.102,23.758c-7.92,6.029-8.794,13.693-3.565,18.439c5.228,4.747,13.761,3.901,16.937-5.674
			c3.176-9.573,24.414-21.159,18.051-5.97c-6.364,15.19-29.057,38.426-38.277,26.276c-9.22-12.15-3.892-24.916-10.989-21.37
			c-5.563,2.779-3.23,7.979-4.142,15.29c1.206,4.821,13.784,43.109,13.784,43.109s61.417-0.001,77.584,0
			c17.568-20.093,32.906-54.412,4.359-92.158c-22.253-29.428-26.275-22.482-26.275-22.482S113.697,76.632,96.969,76.582"/>
		<path clip-path="url(#SVGID_32_)" fill="#717295" d="M140.272,135.954c0,0-10.869,13.106-22.34,11.506
			c-11.473-1.601-15.603,0.608-5.32,17.275c3.341,5.411,5.494,7.86,7.595,10.251c4.058,0,9.213,0.152,14.272,0.152
			c1.082-2.615,2.867-2.332,3.664-5.439C144.526,144.877,147.719,124.548,140.272,135.954"/>
		<path clip-path="url(#SVGID_32_)" fill="none" stroke="#003564" stroke-width="0.9" stroke-miterlimit="10" d="M24.965,101.615
			c15.282-27.792,42.615-48.987,76.602-47.276"/>
		<path clip-path="url(#SVGID_32_)" fill="#717295" d="M95.237,102.001c-10.243-4.368-15.247-0.711-21.63,6.382
			c-6.382,7.092-10.481,12.057-5.95,0c4.531-12.057,12.971-13.12,12.829-18.794c-0.142-5.673,15.106-4.255,20.07,0
			s4.255,18.44,18.438,17.376c14.186-1.064,13.123,23.05-2.125,22.695c-15.25-0.355-32.003,6.736-26.463-4.255
			C95.947,114.411,102.04,104.901,95.237,102.001"/>
		<path clip-path="url(#SVGID_32_)" fill="none" stroke="#003564" stroke-width="0.9" stroke-miterlimit="10" d="M112.146,176.867
			c23.539-42.007,26.81-103.745-4.495-121.236 M107.269,55.368c-23.445-5.489-54.197,70.634-57.062,121.492"/>
		<path clip-path="url(#SVGID_32_)" fill="#717295" d="M95.238,51.99c0,0,1.838-9.022,7.897-9.038
			c4.942-0.015,7.687,6.146,7.131,9.003c41.861,26.86,55.336,83.147,36.619,124.734c-2.793,0.001-6.446,0.006-12.301,0.006
			C154.838,136.951,143.471,80.642,95.238,51.99"/>
		<path clip-path="url(#SVGID_32_)" fill="none" stroke="#003564" stroke-width="1.8" stroke-miterlimit="10" d="M95.238,51.99
			c0,0,1.838-9.022,7.897-9.038c4.942-0.015,7.687,6.146,7.131,9.003c41.861,26.86,55.336,83.147,36.619,124.734
			c-2.793,0.001-6.446,0.006-12.301,0.006C154.838,136.951,143.471,80.642,95.238,51.99z"/>
		<path clip-path="url(#SVGID_32_)" fill="none" stroke="#003564" stroke-width="5.4" stroke-miterlimit="10" d="M132.971,137.002
			c0,0-21.453-12.541-41.889-13.064 M107.076,151.235c0,0,13.894-23.329,2.808-44.449"/>
		<path clip-path="url(#SVGID_32_)" fill="#D8E4EB" d="M155.625,41.916c0,0,0.066-5.961-8.07-8.839
			c-8.139-2.877-11.356,1.969-11.356,1.969l-27.384,76.332l3.563,20.575l15.862-13.705L155.625,41.916z"/>
		<path clip-path="url(#SVGID_32_)" fill="none" stroke="#003564" stroke-width="1.8" stroke-miterlimit="10" d="M155.625,41.916
			c0,0,0.066-5.961-8.07-8.839c-8.139-2.877-11.356,1.969-11.356,1.969l-27.384,76.332l3.563,20.575l15.862-13.705L155.625,41.916z"
			/>
		<path clip-path="url(#SVGID_32_)" fill="#D8E4EB" d="M135.61,35.466c0,0-0.486,5.541,8.123,8.645
			c8.387,3.023,11.784-1.467,11.784-1.467"/>
		<path clip-path="url(#SVGID_32_)" fill="none" stroke="#003564" stroke-width="1.8" stroke-miterlimit="10" d="M135.61,35.466
			c0,0-0.486,5.541,8.123,8.645c8.387,3.023,11.784-1.467,11.784-1.467"/>
		<path clip-path="url(#SVGID_32_)" fill="none" stroke="#003564" stroke-width="1.8" stroke-miterlimit="10" d="M109.825,107.86
			c0,0-0.485,5.54,8.123,8.644c8.385,3.024,11.785-1.467,11.785-1.467"/>
	</g>
</g>
<g display="none">
	<g display="inline">
		<defs>
			<rect id="SVGID_33_" x="18.108" y="25.334" width="160" height="152.261"/>
		</defs>
		<clipPath id="SVGID_34_">
			<use xlink:href="#SVGID_33_"  overflow="visible"/>
		</clipPath>
		<path clip-path="url(#SVGID_34_)" fill="#FFFFFF" d="M80.473,127.507c0,2.755-2.234,4.988-4.989,4.988
			c-2.755,0-4.989-2.233-4.989-4.988H80.473z"/>
	</g>
	<polygon display="inline" fill="#003564" points="19.166,83.801 49.32,176.604 146.897,176.604 177.049,83.801 98.108,26.446 	"/>
	<g display="inline">
		<defs>
			<rect id="SVGID_35_" x="18.108" y="25.334" width="160" height="152.261"/>
		</defs>
		<clipPath id="SVGID_36_">
			<use xlink:href="#SVGID_35_"  overflow="visible"/>
		</clipPath>
		<polygon clip-path="url(#SVGID_36_)" fill="none" stroke="#003564" stroke-width="1.8" stroke-miterlimit="10" points="
			49.32,176.604 19.166,83.802 98.107,26.446 177.049,83.802 146.897,176.604 		"/>
		<path clip-path="url(#SVGID_36_)" fill="#717295" d="M49.442,176.604h46.745c3.375-30.932-4.059-84.685-4.68-87.712
			c-0.442-2.15,19.162,1.597,22.993-25.908c0-9.636-11.479,13.052-29.696,9.147C78.9,63,70.188,57.224,60.468,57.224
			c-17.781,0-33.62,25.006-33.62,48.843L49.442,176.604z"/>
		<path clip-path="url(#SVGID_36_)" fill="none" stroke="#003564" stroke-width="1.8" stroke-miterlimit="10" d="M49.442,176.604
			h46.745c3.375-30.932-4.059-84.685-4.68-87.712c-0.442-2.15,19.162,1.597,22.993-25.908c0-9.636-11.479,13.052-29.696,9.147
			C78.9,63,70.188,57.224,60.468,57.224c-17.781,0-33.62,25.006-33.62,48.843L49.442,176.604z"/>
		<path clip-path="url(#SVGID_36_)" fill="#FFFFFF" d="M82.969,51.606c0,11.908-10.214,21.563-22.814,21.563
			c-12.599,0-22.813-9.655-22.813-21.563s10.214-21.562,22.813-21.562C72.755,30.045,82.969,39.698,82.969,51.606"/>
		
			<ellipse clip-path="url(#SVGID_36_)" fill="none" stroke="#003564" stroke-width="1.8" stroke-miterlimit="10" cx="60.155" cy="51.606" rx="22.813" ry="21.563"/>
		<path clip-path="url(#SVGID_36_)" fill="#717295" d="M113.917,176.692c0-3.99,3.947-55.323,4.7-58.993
			c0.444-2.156-19.207,1.602-23.048-25.979c0-9.662,11.506,13.088,29.768,9.172c5.918-9.156,14.651-14.949,24.396-14.949
			c8.772,0,16.726,4.694,22.543,12.311c-3.448,11.106-23.397,78.351-23.397,78.351L113.917,176.692z"/>
		<path clip-path="url(#SVGID_36_)" fill="none" stroke="#003564" stroke-width="1.8" stroke-miterlimit="10" d="M113.917,176.692
			c0-3.99,3.947-55.323,4.7-58.993c0.444-2.156-19.207,1.602-23.048-25.979c0-9.662,11.506,13.088,29.768,9.172
			c5.918-9.156,14.651-14.949,24.396-14.949c8.772,0,16.726,4.694,22.543,12.311c-3.448,11.106-23.397,78.351-23.397,78.351
			L113.917,176.692z"/>
		<path clip-path="url(#SVGID_36_)" fill="#717295" d="M94.951,176.602c2.208,0,18.757,2.963,22.599-25.226
			c0-9.876-11.511,13.377-29.783,9.374c-5.92-9.358-14.659-15.279-24.408-15.279c-7.912,0-15.161,3.9-20.775,10.373
			c2.845,8.909,6.624,20.758,6.624,20.758H94.951z"/>
		<path clip-path="url(#SVGID_36_)" fill="none" stroke="#003564" stroke-width="1.8" stroke-miterlimit="10" d="M94.951,176.602
			c2.208,0,18.757,2.963,22.599-25.226c0-9.876-11.511,13.377-29.783,9.374c-5.92-9.358-14.659-15.279-24.408-15.279
			c-7.912,0-15.161,3.9-20.775,10.373c2.845,8.909,6.624,20.758,6.624,20.758H94.951z"/>
		<path clip-path="url(#SVGID_36_)" fill="#FFFFFF" d="M87.2,145.845c-2.375,11.668-14.308,19.087-26.654,16.57
			c-12.347-2.52-20.431-14.021-18.058-25.688c2.374-11.668,14.307-19.086,26.654-16.567C81.488,122.677,89.574,134.179,87.2,145.845
			"/>
		<path clip-path="url(#SVGID_36_)" fill="none" stroke="#003564" stroke-width="1.8" stroke-miterlimit="10" d="M87.2,145.845
			c-2.375,11.668-14.308,19.087-26.654,16.57c-12.347-2.52-20.431-14.021-18.058-25.688c2.374-11.668,14.307-19.086,26.654-16.567
			C81.488,122.677,89.574,134.179,87.2,145.845z"/>
		<path clip-path="url(#SVGID_36_)" fill="#FFFFFF" d="M127.196,150.695c-6.997,3.729-15.75,0.957-19.555-6.188
			c-3.805-7.146-1.219-15.957,5.78-19.68c6.995-3.725,15.749-0.955,19.556,6.19C136.782,138.161,134.192,146.973,127.196,150.695"/>
		<path clip-path="url(#SVGID_36_)" fill="#FFFFFF" d="M136.551,134.54l-4.22-1.23l2.388-3.681c-0.203-0.359-0.406-0.72-0.633-1.059
			l-4.378,0.481l0.799-4.329c-0.321-0.251-0.646-0.499-0.985-0.726l-3.869,2.123l-0.914-4.303c-0.393-0.109-0.788-0.215-1.188-0.295
			l-2.762,3.441l-2.494-3.629c-0.403,0.049-0.808,0.104-1.209,0.184l-1.235,4.236l-3.69-2.394c-0.356,0.201-0.714,0.402-1.05,0.625
			l0.481,4.394l-4.335-0.801c-0.249,0.321-0.494,0.645-0.721,0.98l2.125,3.874l-4.301,0.916c-0.107,0.395-0.213,0.79-0.293,1.191
			l3.437,2.757l-3.62,2.487c0.051,0.408,0.106,0.814,0.188,1.219l4.228,1.232l-2.387,3.678c0.203,0.36,0.407,0.721,0.632,1.061
			l4.378-0.479l-0.799,4.313c0.325,0.254,0.653,0.505,0.996,0.732l3.856-2.116l0.908,4.28c0.4,0.111,0.801,0.217,1.209,0.299
			l2.748-3.422l2.479,3.606c0.412-0.05,0.822-0.107,1.231-0.189l1.228-4.209l3.666,2.38c0.365-0.206,0.729-0.411,1.07-0.638
			l-0.479-4.367l4.312,0.798c0.256-0.325,0.506-0.655,0.735-0.999l-2.116-3.852l4.284-0.91c0.11-0.399,0.218-0.801,0.299-1.207
			l-3.425-2.75l3.613-2.48C136.688,135.356,136.632,134.947,136.551,134.54"/>
		<path clip-path="url(#SVGID_36_)" fill="#003564" d="M126.449,147.648c-1.726-3.252-4.976-9.38-4.976-9.38s5.42-2.875,9.381-4.976
			C133.602,138.474,131.629,144.901,126.449,147.648"/>
		<path clip-path="url(#SVGID_36_)" fill="#003564" d="M129.924,131.537c-3.254,1.727-9.38,4.977-9.38,4.977
			s-2.876-5.419-4.979-9.382C120.748,124.384,127.178,126.355,129.924,131.537"/>
		<path clip-path="url(#SVGID_36_)" fill="#003564" d="M114.168,127.874c1.726,3.253,4.977,9.38,4.977,9.38s-5.42,2.874-9.383,4.976
			C107.015,137.049,108.989,130.622,114.168,127.874"/>
		<path clip-path="url(#SVGID_36_)" fill="#003564" d="M110.694,143.985c3.253-1.727,9.38-4.977,9.38-4.977s2.874,5.42,4.978,9.382
			C119.87,151.139,113.442,149.167,110.694,143.985"/>
		<path clip-path="url(#SVGID_36_)" fill="#FFFFFF" d="M121.686,140.359c-1.434,0.763-3.214,0.216-3.975-1.219
			c-0.762-1.437-0.217-3.217,1.219-3.977c1.434-0.762,3.217-0.216,3.977,1.218C123.667,137.818,123.122,139.599,121.686,140.359"/>
		<path clip-path="url(#SVGID_36_)" fill="#003564" d="M121.025,139.113c-0.747,0.394-1.671,0.108-2.065-0.636
			c-0.396-0.744-0.11-1.671,0.633-2.066c0.746-0.395,1.671-0.112,2.068,0.634C122.054,137.79,121.77,138.717,121.025,139.113"/>
		<path clip-path="url(#SVGID_36_)" fill="#FFFFFF" d="M112.186,120.479c-8.506,5.672-20.092,3.232-25.885-5.455
			c-5.79-8.683-3.592-20.323,4.916-25.99c8.5-5.672,20.089-3.23,25.885,5.453C122.893,103.171,120.692,114.808,112.186,120.479"/>
		<path clip-path="url(#SVGID_36_)" fill="#FFFFFF" d="M122.957,106.84l-4.748-3.092l4.323-3.646
			c-0.114-0.519-0.238-1.036-0.393-1.549l-5.574-1.042l2.596-5.027c-0.307-0.437-0.612-0.873-0.945-1.278l-5.559,1.175l0.476-5.657
			c-0.446-0.283-0.894-0.559-1.356-0.806l-4.699,3.218l-1.721-5.407c-0.518-0.09-1.037-0.176-1.561-0.227l-3.107,4.768l-3.662-4.34
			c-0.511,0.115-1.022,0.236-1.528,0.389l-1.049,5.598L89.41,87.31c-0.432,0.304-0.865,0.608-1.268,0.938l1.178,5.576l-5.665-0.476
			c-0.28,0.443-0.555,0.889-0.802,1.35l3.22,4.699l-5.401,1.724c-0.09,0.52-0.175,1.041-0.227,1.566l4.764,3.102l-4.33,3.653
			c0.116,0.517,0.238,1.03,0.394,1.541l5.586,1.042l-2.599,5.026c0.307,0.435,0.614,0.873,0.947,1.279l5.56-1.174l-0.479,5.641
			c0.451,0.285,0.904,0.564,1.373,0.813l4.678-3.207l1.711,5.377c0.528,0.093,1.058,0.178,1.591,0.23l3.092-4.742l3.642,4.312
			c0.522-0.116,1.041-0.241,1.556-0.398l1.037-5.559l5.012,2.588c0.439-0.309,0.879-0.618,1.288-0.954l-1.171-5.545l5.637,0.477
			c0.285-0.451,0.566-0.906,0.814-1.375l-3.203-4.675l5.381-1.715C122.817,107.899,122.905,107.372,122.957,106.84"/>
		<path clip-path="url(#SVGID_36_)" fill="#003564" d="M110.84,116.661c-2.631-3.952-7.58-11.404-7.58-11.404
			s6.59-4.38,11.408-7.579C118.853,103.977,117.141,112.478,110.84,116.661"/>
		<path clip-path="url(#SVGID_36_)" fill="#003564" d="M113.25,95.543c-3.959,2.631-11.404,7.579-11.404,7.579
			s-4.382-6.588-7.585-11.406C100.563,87.53,109.065,89.243,113.25,95.543"/>
		<path clip-path="url(#SVGID_36_)" fill="#003564" d="M92.563,92.847c2.627,3.956,7.579,11.405,7.579,11.405
			s-6.589,4.378-11.407,7.579C84.549,105.533,86.263,97.032,92.563,92.847"/>
		<path clip-path="url(#SVGID_36_)" fill="#003564" d="M90.153,113.966c3.955-2.629,11.404-7.579,11.404-7.579
			s4.381,6.591,7.583,11.406C102.838,121.98,94.341,120.266,90.153,113.966"/>
		<path clip-path="url(#SVGID_36_)" fill="#FFFFFF" d="M103.798,107.913c-1.74,1.161-4.097,0.687-5.256-1.059
			c-1.159-1.746-0.683-4.1,1.062-5.257c1.741-1.162,4.1-0.688,5.258,1.057C106.018,104.4,105.546,106.753,103.798,107.913"/>
		<path clip-path="url(#SVGID_36_)" fill="#003564" d="M102.792,106.398c-0.907,0.6-2.131,0.353-2.731-0.552
			c-0.604-0.906-0.355-2.131,0.551-2.734c0.906-0.602,2.128-0.356,2.732,0.551C103.946,104.569,103.701,105.794,102.792,106.398"/>
		<path clip-path="url(#SVGID_36_)" fill="#FFFFFF" d="M118.271,75.06c-7.92,2.992-16.81-1.138-19.865-9.225
			c-3.052-8.087,0.891-17.066,8.812-20.052c7.917-2.99,16.81,1.14,19.862,9.227C130.136,63.095,126.192,72.072,118.271,75.06"/>
		<path clip-path="url(#SVGID_36_)" fill="#FFFFFF" d="M130.389,59.229l-4.304-1.881l3.033-3.57
			c-0.165-0.409-0.333-0.818-0.524-1.207l-4.703-0.09l1.439-4.476c-0.309-0.311-0.619-0.617-0.946-0.903l-4.39,1.721l-0.379-4.683
			c-0.401-0.169-0.805-0.336-1.219-0.475L115,46.933l-2.145-4.185c-0.434-0.002-0.867,0-1.306,0.029l-1.888,4.319l-3.581-3.042
			c-0.404,0.165-0.81,0.33-1.196,0.521l-0.091,4.719l-4.481-1.44c-0.309,0.307-0.613,0.614-0.898,0.94l1.721,4.392l-4.678,0.385
			c-0.169,0.401-0.336,0.806-0.475,1.22l3.264,3.39l-4.173,2.141c-0.003,0.438,0,0.877,0.03,1.316l4.311,1.882l-3.031,3.57
			c0.166,0.409,0.331,0.819,0.525,1.209l4.702,0.091l-1.437,4.459c0.31,0.313,0.623,0.624,0.955,0.912l4.373-1.714l0.377,4.657
			c0.409,0.172,0.819,0.34,1.24,0.481l3.379-3.248l2.133,4.157c0.44,0.003,0.884-0.001,1.33-0.031l1.874-4.292l3.559,3.022
			c0.414-0.167,0.826-0.335,1.219-0.529l0.088-4.689l4.459,1.435c0.314-0.311,0.625-0.626,0.914-0.958l-1.713-4.369l4.66-0.379
			c0.172-0.407,0.342-0.815,0.483-1.235l-3.253-3.382l4.167-2.135C130.421,60.111,130.419,59.671,130.389,59.229"/>
		<path clip-path="url(#SVGID_36_)" fill="#003564" d="M117.895,71.73c-1.381-3.681-3.987-10.613-3.987-10.613
			s6.135-2.306,10.617-3.988C126.727,62.991,123.76,69.53,117.895,71.73"/>
		<path clip-path="url(#SVGID_36_)" fill="#003564" d="M123.779,55.144c-3.683,1.383-10.612,3.988-10.612,3.988
			s-2.308-6.132-3.992-10.617C115.036,46.312,121.578,49.279,123.779,55.144"/>
		<path clip-path="url(#SVGID_36_)" fill="#003564" d="M107.592,49.11c1.383,3.681,3.988,10.615,3.988,10.615
			s-6.131,2.302-10.615,3.987C98.764,57.851,101.731,51.312,107.592,49.11"/>
		<path clip-path="url(#SVGID_36_)" fill="#003564" d="M101.71,65.698c3.682-1.384,10.614-3.988,10.614-3.988
			s2.305,6.133,3.99,10.615C110.45,74.529,103.915,71.562,101.71,65.698"/>
		<path clip-path="url(#SVGID_36_)" fill="#FFFFFF" d="M113.848,63.359c-1.621,0.613-3.434-0.21-4.041-1.834
			c-0.612-1.623,0.209-3.435,1.832-4.044c1.625-0.61,3.437,0.212,4.047,1.835C116.294,60.939,115.473,62.751,113.848,63.359"/>
		<path clip-path="url(#SVGID_36_)" fill="#003564" d="M113.32,61.95c-0.845,0.315-1.787-0.111-2.103-0.955
			c-0.318-0.844,0.11-1.784,0.955-2.102c0.842-0.316,1.782,0.109,2.102,0.953C114.59,60.689,114.163,61.633,113.32,61.95"/>
		<path clip-path="url(#SVGID_36_)" fill="#FFFFFF" d="M125.762,84.406c1.388,11.826,12.658,20.222,25.17,18.75
			c12.515-1.472,21.533-12.255,20.146-24.082c-1.389-11.826-12.658-20.22-25.172-18.748S124.373,72.58,125.762,84.406"/>
		<path clip-path="url(#SVGID_36_)" fill="none" stroke="#003564" stroke-width="1.8" stroke-miterlimit="10" d="M125.762,84.406
			c1.388,11.826,12.658,20.222,25.17,18.75c12.515-1.472,21.533-12.255,20.146-24.082c-1.389-11.826-12.658-20.22-25.172-18.748
			S124.373,72.58,125.762,84.406z"/>
		<path clip-path="url(#SVGID_36_)" fill="#717295" d="M59.52,45.089c-0.428,1.932-2.341,3.15-4.275,2.721
			c-1.93-0.428-3.149-2.341-2.721-4.272c0.428-1.932,2.343-3.149,4.274-2.722C58.729,41.245,59.948,43.158,59.52,45.089"/>
		<path clip-path="url(#SVGID_36_)" fill="#D8E4EB" d="M79.409,59.845c-3.852,8.646-13.765,12.958-22.875,11.003
			c7.326-2.528,4.893-7.419,6.889-10.044c12.408-0.724,5.593-9.91,3.693-16.646c1.296-2.966,2.036-6.697,1.528-10.614
			C79.246,38.269,83.871,49.84,79.409,59.845"/>
		<path clip-path="url(#SVGID_36_)" fill="#717295" d="M77.333,47.518c-0.429,1.931-2.34,3.149-4.272,2.721
			c-1.93-0.428-3.15-2.342-2.721-4.272c0.428-1.932,2.341-3.149,4.271-2.723C76.546,43.672,77.763,45.585,77.333,47.518"/>
		
			<path clip-path="url(#SVGID_36_)" fill="none" stroke="#003564" stroke-width="1.8" stroke-linecap="round" stroke-miterlimit="10" d="
			M69.334,65.584c0,0-7.552,5.738-15.531-1.854"/>
		<path clip-path="url(#SVGID_36_)" fill="#717295" d="M61.74,135.827c0.322,1.953-1.003,3.795-2.957,4.115
			c-1.952,0.318-3.794-1.006-4.113-2.957c-0.321-1.952,1.004-3.795,2.957-4.114C59.579,132.553,61.421,133.876,61.74,135.827"/>
		<path clip-path="url(#SVGID_36_)" fill="#D8E4EB" d="M85.687,142.143c-0.366,9.457-7.532,17.164-17.152,18.711
			c5.862-5.068,1.788-8.706,2.665-11.884c11.253-5.28,1.513-11.279-2.752-16.828c0.102-3.235-0.597-6.974-2.523-10.422
			C77.523,122.17,86.114,131.196,85.687,142.143"/>
		<path clip-path="url(#SVGID_36_)" fill="#717295" d="M79.183,131.468c0.319,1.952-1.003,3.793-2.956,4.112
			c-1.95,0.319-3.795-1.005-4.113-2.957c-0.32-1.952,1.005-3.793,2.955-4.112C77.023,128.19,78.863,129.515,79.183,131.468"/>
		
			<path clip-path="url(#SVGID_36_)" fill="none" stroke="#003564" stroke-width="1.8" stroke-linecap="round" stroke-miterlimit="10" d="
			M78.512,150.92c0,0-5.335,8.004-15.005,5.01"/>
		<path clip-path="url(#SVGID_36_)" fill="#717295" d="M149.155,75.493c0.429,1.932,2.342,3.149,4.275,2.721
			c1.93-0.428,3.148-2.341,2.721-4.273c-0.428-1.931-2.343-3.148-4.273-2.721C149.946,71.648,148.727,73.562,149.155,75.493"/>
		<path clip-path="url(#SVGID_36_)" fill="#D8E4EB" d="M129.266,90.015c3.851,8.645,13.765,12.958,22.875,11.003
			c-7.326-2.529-4.894-7.419-6.89-10.044c-12.407-0.724-5.593-9.911-3.692-16.647c-1.297-2.966-2.037-6.696-1.528-10.613
			C129.43,68.438,124.805,80.01,129.266,90.015"/>
		<path clip-path="url(#SVGID_36_)" fill="#717295" d="M131.341,77.921c0.429,1.932,2.34,3.15,4.272,2.722
			c1.93-0.429,3.149-2.342,2.721-4.273c-0.428-1.931-2.342-3.148-4.271-2.722C132.129,74.076,130.913,75.989,131.341,77.921"/>
		
			<path clip-path="url(#SVGID_36_)" fill="none" stroke="#003564" stroke-width="1.8" stroke-linecap="round" stroke-miterlimit="10" d="
			M139.34,95.988c0,0,7.552,5.738,15.531-1.854"/>
	</g>
</g>
<g display="none">
	<polygon display="inline" fill="#717295" points="19.154,85.134 49.233,177.705 146.566,177.705 176.645,85.134 97.899,27.922 	"/>
	<g display="inline">
		<defs>
			<rect id="SVGID_37_" x="18.108" y="20.826" width="160.709" height="157.769"/>
		</defs>
		<clipPath id="SVGID_38_">
			<use xlink:href="#SVGID_37_"  overflow="visible"/>
		</clipPath>
		<polygon clip-path="url(#SVGID_38_)" fill="none" stroke="#003564" stroke-width="1.779" stroke-miterlimit="10" points="
			146.567,177.705 176.645,85.134 97.899,27.923 19.153,85.134 49.232,177.705 		"/>
		<path clip-path="url(#SVGID_38_)" fill="#D8E4EB" d="M103.241,110.258c-8.537-21.943,33.389-22.405,35.211-22.134
			c3.468-11.337,27.931-9.975,32.197,10.796c7.469,1.714,13.336,22.964-4.267,22.539c-0.802,13.8-20.274,18.361-28.808,9.234
			C108.042,144.385,86.97,115.664,103.241,110.258"/>
		<path clip-path="url(#SVGID_38_)" fill="none" stroke="#003564" stroke-width="1.779" stroke-miterlimit="10" d="M103.241,110.258
			c-8.537-21.943,33.389-22.405,35.211-22.134c3.468-11.337,27.931-9.975,32.197,10.796c7.469,1.714,13.336,22.964-4.267,22.539
			c-0.802,13.8-20.274,18.361-28.808,9.234C108.042,144.385,86.97,115.664,103.241,110.258z"/>
		<path clip-path="url(#SVGID_38_)" fill="#D8E4EB" d="M136.711,91.813c7.336-6.937,8.762-23.953-7.494-25.63
			c8.923-13.587-13.206-42.312-34.621-20.813c-9.995-46.938-56.392-12.541-49.968,5.322c-16.575-2.187-26.786,14.131-17.843,28
			c-7.654,13.526,20.898,32.517,48.339,16.035C93.93,110.424,127.271,102.741,136.711,91.813"/>
		<path clip-path="url(#SVGID_38_)" fill="none" stroke="#003564" stroke-width="1.779" stroke-miterlimit="10" d="M136.711,91.813
			c7.336-6.937,8.762-23.953-7.494-25.63c8.923-13.587-13.206-42.312-34.621-20.813c-9.995-46.938-56.392-12.541-49.968,5.322
			c-16.575-2.187-26.786,14.131-17.843,28c-7.654,13.526,20.898,32.517,48.339,16.035C93.93,110.424,127.271,102.741,136.711,91.813
			z"/>
		<path clip-path="url(#SVGID_38_)" fill="#FFFFFF" d="M108.929,44.612c1.964-1.598,14.64-5.248,15.076,9.547
			c-0.89,4.637-5.202-4.32-9.306-4.891C109.297,48.519,105.934,46.659,108.929,44.612"/>
		<path clip-path="url(#SVGID_38_)" fill="#FFFFFF" d="M62.044,29.74c2.513-4.961,25.017-9.288,28.741,16.421
			c1.931,10.109-11.757-6.025-18.814-7.007C62.678,37.862,59.531,34.705,62.044,29.74"/>
		<path clip-path="url(#SVGID_38_)" fill="#FFFFFF" d="M55.013,62.673c6.032-3.009,23.312-6.979,19.054,19.676
			c-1.529,7.976-6.137-6.026-13.195-7.009C51.58,74.05,48.981,65.683,55.013,62.673"/>
		<path clip-path="url(#SVGID_38_)" fill="#FFFFFF" d="M141.426,111.9c0,0,14.318-8.731,19.547,7.968
			c2.224,7.231-6.074-3.435-10.707-2.31C144.164,119.044,139.245,117.473,141.426,111.9"/>
		<path clip-path="url(#SVGID_38_)" fill="#FFFFFF" d="M143.116,89.542c2.147-2.663,17.877-11.049,22.609,8.384
			c0.128,6.379-8.089-4.249-13.671-3.85C144.7,94.603,139.733,93.087,143.116,89.542"/>
	</g>
	<polygon display="inline" fill="#FFFFFF" points="49.093,177.705 123.17,177.705 129.889,156.64 123.862,139.845 27.39,110.492 	
		"/>
	<g display="inline">
		<defs>
			<rect id="SVGID_39_" x="18.108" y="20.826" width="160.709" height="157.769"/>
		</defs>
		<clipPath id="SVGID_40_">
			<use xlink:href="#SVGID_39_"  overflow="visible"/>
		</clipPath>
		<polygon clip-path="url(#SVGID_40_)" fill="none" stroke="#003564" stroke-width="1.779" stroke-miterlimit="10" points="
			123.17,177.705 129.888,156.64 123.862,139.845 27.391,110.493 49.093,177.705 		"/>
	</g>
	<polyline display="inline" fill="#003564" points="123.19,139.878 114.782,151.883 129.498,156.739 	"/>
	<path display="inline" fill="none" stroke="#003564" stroke-width="1.779" stroke-miterlimit="10" d="M42.775,158.435
		l38.198,11.793 M38.866,144.451l45.288,13.983 M34.449,130.048l53.111,16.397"/>
</g>
<g display="none">
	<polygon display="inline" fill="#717295" points="145.602,176.16 175.685,83.571 96.925,26.351 18.166,83.571 48.25,176.16 	"/>
	<g display="inline">
		<defs>
			<rect id="SVGID_41_" x="17.108" y="25.237" width="167.916" height="165.357"/>
		</defs>
		<clipPath id="SVGID_42_">
			<use xlink:href="#SVGID_41_"  overflow="visible"/>
		</clipPath>
		<polygon clip-path="url(#SVGID_42_)" fill="none" stroke="#003564" stroke-width="1.8" stroke-miterlimit="10" points="
			145.602,176.16 175.685,83.571 96.925,26.351 18.166,83.571 48.25,176.16 		"/>
		<path clip-path="url(#SVGID_42_)" fill="#FFFFFF" d="M154.879,189.509l-111.025-26.84L18.167,83.61L74.33,42.819l6.733,1.305
			c0,0,7.309-12.144,18.261-8.492c12.74,4.247,11.146,15.923,11.146,15.923l73.469,17.76L154.879,189.509z"/>
		<path clip-path="url(#SVGID_42_)" fill="none" stroke="#003564" stroke-width="1.8" stroke-miterlimit="10" d="M154.879,189.509
			l-111.025-26.84L18.167,83.61L74.33,42.819l6.733,1.305c0,0,7.309-12.144,18.261-8.492c12.74,4.247,11.146,15.923,11.146,15.923
			l73.469,17.76L154.879,189.509z"/>
	</g>
	<polygon display="inline" fill="#003564" points="147.208,178.692 83.539,163.329 102.985,83.047 166.654,98.408 	"/>
	<polygon display="inline" fill="none" stroke="#003564" stroke-width="1.8" stroke-miterlimit="10" points="147.208,178.692 
		83.539,163.329 102.985,83.047 166.654,98.408 	"/>
	<g display="inline">
		<defs>
			<rect id="SVGID_43_" x="17.108" y="25.237" width="167.916" height="165.357"/>
		</defs>
		<clipPath id="SVGID_44_">
			<use xlink:href="#SVGID_43_"  overflow="visible"/>
		</clipPath>
		<path clip-path="url(#SVGID_44_)" fill="#717295" d="M126.874,123.55c-34.178-8.291-43.313,39.662-43.313,39.662l63.785,15.474
			C147.345,178.686,161.048,131.84,126.874,123.55"/>
		<path clip-path="url(#SVGID_44_)" fill="none" stroke="#003564" stroke-width="1.8" stroke-miterlimit="10" d="M126.874,123.55
			c-34.178-8.291-43.313,39.662-43.313,39.662l63.785,15.474C147.345,178.686,161.048,131.84,126.874,123.55z"/>
		<path clip-path="url(#SVGID_44_)" fill="#D8E4EB" d="M144.652,116.717c-1.933,8.004-10.12,12.892-18.29,10.913
			c-8.166-1.974-13.221-10.064-11.285-18.067c1.934-8.004,10.121-12.89,18.29-10.914
			C141.533,100.623,146.586,108.713,144.652,116.717"/>
		
			<ellipse transform="matrix(0.972 0.2351 -0.2351 0.972 30.242 -27.362)" clip-path="url(#SVGID_44_)" fill="none" stroke="#003564" stroke-width="1.8" stroke-miterlimit="10" cx="129.864" cy="113.14" rx="15.214" ry="14.908"/>
		<path clip-path="url(#SVGID_44_)" fill="none" stroke="#003564" stroke-width="1.8" stroke-miterlimit="10" d="M65.122,136.488
			l-31.975-7.803 M59.698,143.34l-23.719-5.862 M24.719,79.497l47.409,11.612 M19.993,86.257l45.752,11.297 M79.614,75.97
			l-37.958-9.263 M61.041,79.579L33.524,72.82 M73.585,58.443l-15.281-3.593 M76.542,67.396l-27.351-6.67 M121.356,70.238
			l34.84,8.501 M119.525,77.891l34.836,8.504"/>
		<path clip-path="url(#SVGID_44_)" fill="#717295" d="M103.407,50.467c0,4.427-3.525,8.016-7.875,8.016
			c-4.348,0-7.874-3.589-7.874-8.016c0-4.429,3.526-8.017,7.874-8.017C99.882,42.45,103.407,46.038,103.407,50.467"/>
		
			<ellipse clip-path="url(#SVGID_44_)" fill="none" stroke="#003564" stroke-width="1.8" stroke-miterlimit="10" cx="95.532" cy="50.467" rx="7.875" ry="8.016"/>
	</g>
</g>
<g display="none">
	<polygon display="inline" fill="#D8E4EB" points="18.138,82.886 48.301,175.719 145.915,175.719 176.079,82.886 97.106,25.509 	"/>
	<g display="inline">
		<defs>
			<rect id="SVGID_45_" x="17.108" y="12.108" width="160" height="164.486"/>
		</defs>
		<clipPath id="SVGID_46_">
			<use xlink:href="#SVGID_45_"  overflow="visible"/>
		</clipPath>
		<polygon clip-path="url(#SVGID_46_)" fill="none" stroke="#003564" stroke-width="1.751" stroke-miterlimit="10" points="
			145.915,175.72 176.079,82.886 97.106,25.51 18.137,82.886 48.302,175.72 		"/>
	</g>
	<polygon display="inline" fill="#003564" points="29.918,118.951 48.306,175.72 137.473,175.72 151.192,132.398 136.91,108.516 
		40.236,80.961 	"/>
	<g display="inline">
		<defs>
			<rect id="SVGID_47_" x="17.108" y="12.108" width="160" height="164.486"/>
		</defs>
		<clipPath id="SVGID_48_">
			<use xlink:href="#SVGID_47_"  overflow="visible"/>
		</clipPath>
		<polygon clip-path="url(#SVGID_48_)" fill="none" stroke="#003564" stroke-width="1.751" stroke-miterlimit="10" points="
			137.473,175.72 151.192,132.398 136.909,108.516 40.236,80.961 29.918,118.951 48.305,175.72 		"/>
	</g>
	<polyline display="inline" fill="#717295" points="134.932,108.896 129.901,128.247 150.846,133.415 	"/>
	<polyline display="inline" fill="none" stroke="#003564" stroke-width="1.751" stroke-miterlimit="10" points="134.932,108.896 
		129.901,128.247 150.846,133.415 	"/>
	<g display="inline">
		<defs>
			<rect id="SVGID_49_" x="17.108" y="12.108" width="160" height="164.486"/>
		</defs>
		<clipPath id="SVGID_50_">
			<use xlink:href="#SVGID_49_"  overflow="visible"/>
		</clipPath>
		<path clip-path="url(#SVGID_50_)" fill="none" stroke="#FFFFFF" stroke-width="6" stroke-miterlimit="10" d="M41.203,110.908
			l32.938,9.028 M45.186,95.728l32.937,9.03 M91.043,158.862l32.852,9.35 M50.326,163.586l18.616,5.191 M43.933,145.709
			l33.957,9.409"/>
	</g>
	<polygon display="inline" fill="#717295" points="98.358,13.619 142.607,77.033 113.387,77.033 113.387,132.408 82.494,132.403 
		82.494,77.038 52.434,77.038 	"/>
	<g display="inline">
		<defs>
			<rect id="SVGID_51_" x="17.108" y="12.108" width="160" height="164.486"/>
		</defs>
		<clipPath id="SVGID_52_">
			<use xlink:href="#SVGID_51_"  overflow="visible"/>
		</clipPath>
		<polygon clip-path="url(#SVGID_52_)" fill="none" stroke="#003564" stroke-width="1.751" stroke-miterlimit="10" points="
			98.358,13.619 142.607,77.033 113.387,77.033 113.387,132.408 82.494,132.403 82.494,77.038 52.434,77.038 		"/>
	</g>
</g>
<g display="none">
	<polygon display="inline" fill="#D8E4EB" points="47.32,175.662 17.166,82.858 96.109,25.506 175.049,82.858 144.897,175.662 	"/>
	<g display="inline">
		<defs>
			<rect id="SVGID_53_" x="16.108" y="24.394" width="160" height="157.201"/>
		</defs>
		<clipPath id="SVGID_54_">
			<use xlink:href="#SVGID_53_"  overflow="visible"/>
		</clipPath>
		<polygon clip-path="url(#SVGID_54_)" fill="none" stroke="#003564" stroke-width="1.8" stroke-miterlimit="10" points="
			47.32,175.662 17.166,82.858 96.109,25.506 175.049,82.858 144.897,175.662 		"/>
	</g>
	<rect x="42.644" y="69.396" display="inline" fill="#FFFFFF" width="109.155" height="68.971"/>
	<g display="inline">
		<defs>
			<rect id="SVGID_55_" x="16.108" y="24.394" width="160" height="157.201"/>
		</defs>
		<clipPath id="SVGID_56_">
			<use xlink:href="#SVGID_55_"  overflow="visible"/>
		</clipPath>
		<path clip-path="url(#SVGID_56_)" fill="#003564" d="M75.795,91.081c-0.881,3.208-3.428,5.679-6.733,6.538
			c-4.091,1.066-8.536-1.08-10.414-5.025c-0.613-1.288-0.691-1.618-0.764-3.338c-0.072-1.582-0.022-2.133,0.308-3.206
			c1.519-4.994,6.917-7.659,11.943-5.886c1.864,0.656,3.991,2.534,4.901,4.327C76.042,86.472,76.345,89.092,75.795,91.081
			 M91.529,88.289c-1.997-9.732-9.43-17.126-19.404-19.303c-2.142-0.472-7.407-0.469-9.586,0.003
			c-9.927,2.135-17.308,9.471-19.422,19.3c-0.535,2.485-0.573,7.239-0.075,9.507c1.152,5.264,3.3,9.261,6.884,12.829
			c4.8,4.768,10.655,7.188,17.407,7.195c5.119,0.005,9.516-1.327,13.815-4.182c3.16-2.099,6.57-5.958,8.323-9.427
			c1.117-2.213,2.118-5.651,2.489-8.543C92.145,94.206,91.908,90.131,91.529,88.289 M105.592,120.465
			c-0.939-0.9-2.545-1.595-4.797-2.08c-2.383-0.513-7.857-0.468-10.069,0.086c-2.822,0.706-4.617,1.87-4.985,3.233
			c-0.367,1.359,0.362,3.562,2.169,6.518c2.16,3.54,7.493,10.164,8.181,10.164c0.303,0,3.738-4.081,5.686-6.762
			c3.104-4.275,4.617-7.305,4.621-9.289C106.4,121.28,106.368,121.205,105.592,120.465L105.592,120.465z M133.495,91.313
			c-1.539,4.724-6.382,7.496-10.992,6.298c-5.735-1.488-8.633-7.826-5.976-13.065c0.925-1.817,3.069-3.726,4.929-4.382
			c4.551-1.604,9.344,0.332,11.473,4.629c0.705,1.435,0.729,1.54,0.771,3.623C133.727,89.801,133.658,90.826,133.495,91.313
			 M148.905,88.239c-1.613-8.045-8.115-15.652-16.273-18.39c-3.56-1.193-7.814-1.579-11.504-1.032
			c-7.99,1.174-14.914,6.199-18.59,13.477c-2.812,5.574-3.311,12.505-1.336,18.575c3.272,10.053,12.719,16.917,23.338,16.953
			c6.864,0.022,12.631-2.35,17.508-7.194c4.08-4.053,6.306-8.524,7.213-14.497C149.313,93.899,149.163,90.771,148.905,88.239
			 M155.129,117.587c-0.571,14.067-3.281,25.855-8.121,35.337c-6.698,13.12-17.701,21.736-32.523,25.467
			c-11.505,2.893-26.608,3.078-37.849,0.463c-7.284-1.689-14-4.751-19.191-8.742c-12.701-9.771-19.399-25.931-20.62-49.737
			c-0.221-4.333-0.257-85.994-0.038-85.994c0.077,0,0.476,0.729,0.876,1.62c1.656,3.668,4.279,7.502,7.253,10.597
			c3.04,3.169,5.577,5.05,9.115,6.751l1.861,0.897h39.829l39.833,0.006l2.121-1.518c3.645-2.604,5.73-4.381,9.107-7.755
			c3.42-3.424,5.417-5.89,7.152-8.837c0.576-0.973,1.123-1.768,1.218-1.768c0.211,0,0.188,78.027-0.022,83.21V117.587z"/>
		<path clip-path="url(#SVGID_56_)" fill="none" stroke="#003564" stroke-width="1.8" stroke-miterlimit="10" d="M75.795,91.081
			c-0.881,3.208-3.428,5.679-6.733,6.538c-4.091,1.066-8.536-1.08-10.414-5.025c-0.613-1.288-0.691-1.618-0.764-3.338
			c-0.072-1.582-0.022-2.133,0.308-3.206c1.519-4.994,6.917-7.659,11.943-5.886c1.864,0.656,3.991,2.534,4.901,4.327
			C76.042,86.472,76.345,89.092,75.795,91.081z M91.529,88.289c-1.997-9.732-9.43-17.126-19.404-19.303
			c-2.142-0.472-7.407-0.469-9.586,0.003c-9.927,2.135-17.308,9.471-19.422,19.3c-0.535,2.485-0.573,7.239-0.075,9.507
			c1.152,5.264,3.3,9.261,6.884,12.829c4.8,4.768,10.655,7.188,17.407,7.195c5.119,0.005,9.516-1.327,13.815-4.182
			c3.16-2.099,6.57-5.958,8.323-9.427c1.117-2.213,2.118-5.651,2.489-8.543C92.145,94.206,91.908,90.131,91.529,88.289z
			 M105.592,120.465c-0.939-0.9-2.545-1.595-4.797-2.08c-2.383-0.513-7.857-0.468-10.069,0.086c-2.822,0.706-4.617,1.87-4.985,3.233
			c-0.367,1.359,0.362,3.562,2.169,6.518c2.16,3.54,7.493,10.164,8.181,10.164c0.303,0,3.738-4.081,5.686-6.762
			c3.104-4.275,4.617-7.305,4.621-9.289C106.4,121.28,106.368,121.205,105.592,120.465L105.592,120.465z M133.495,91.313
			c-1.539,4.724-6.382,7.496-10.992,6.298c-5.735-1.488-8.633-7.826-5.976-13.065c0.925-1.817,3.069-3.726,4.929-4.382
			c4.551-1.604,9.344,0.332,11.473,4.629c0.705,1.435,0.729,1.54,0.771,3.623C133.727,89.801,133.658,90.826,133.495,91.313z
			 M148.905,88.239c-1.613-8.045-8.115-15.652-16.273-18.39c-3.56-1.193-7.814-1.579-11.504-1.032
			c-7.99,1.174-14.914,6.199-18.59,13.477c-2.812,5.574-3.311,12.505-1.336,18.575c3.272,10.053,12.719,16.917,23.338,16.953
			c6.864,0.022,12.631-2.35,17.508-7.194c4.08-4.053,6.306-8.524,7.213-14.497C149.313,93.899,149.163,90.771,148.905,88.239z
			 M155.129,117.587c-0.571,14.067-3.281,25.855-8.121,35.337c-6.698,13.12-17.701,21.736-32.523,25.467
			c-11.505,2.893-26.608,3.078-37.849,0.463c-7.284-1.689-14-4.751-19.191-8.742c-12.701-9.771-19.399-25.931-20.62-49.737
			c-0.221-4.333-0.257-85.994-0.038-85.994c0.077,0,0.476,0.729,0.876,1.62c1.656,3.668,4.279,7.502,7.253,10.597
			c3.04,3.169,5.577,5.05,9.115,6.751l1.861,0.897h39.829l39.833,0.006l2.121-1.518c3.645-2.604,5.73-4.381,9.107-7.755
			c3.42-3.424,5.417-5.89,7.152-8.837c0.576-0.973,1.123-1.768,1.218-1.768c0.211,0,0.188,78.027-0.022,83.21V117.587z"/>
	</g>
</g>
<g display="none">
	<polygon display="inline" fill="#D8E4EB" points="48.32,173.692 18.166,80.89 97.109,23.534 176.049,80.89 145.897,173.692 	"/>
	<g display="inline">
		<defs>
			<rect id="SVGID_57_" x="17.108" y="22.422" width="160" height="163.173"/>
		</defs>
		<clipPath id="SVGID_58_">
			<use xlink:href="#SVGID_57_"  overflow="visible"/>
		</clipPath>
		<polygon clip-path="url(#SVGID_58_)" fill="none" stroke="#003564" stroke-width="1.8" stroke-miterlimit="10" points="
			48.32,173.692 18.166,80.89 97.109,23.534 176.049,80.89 145.897,173.692 		"/>
	</g>
	<polygon display="inline" fill="#FFFFFF" points="163.183,47.049 97.46,88.29 97.207,183.965 162.927,142.724 	"/>
	<g display="inline">
		<defs>
			<rect id="SVGID_59_" x="17.108" y="22.422" width="160" height="163.173"/>
		</defs>
		<clipPath id="SVGID_60_">
			<use xlink:href="#SVGID_59_"  overflow="visible"/>
		</clipPath>
		<polygon clip-path="url(#SVGID_60_)" fill="none" stroke="#003564" stroke-width="1.8" points="163.183,47.049 97.46,88.29 
			97.207,183.965 162.927,142.724 		"/>
	</g>
	<polygon display="inline" fill="#FFFFFF" points="147.594,70.027 111.739,91.973 112.526,159.024 148.384,137.08 	"/>
	<polygon display="inline" fill="#003564" points="97.141,88.449 79.892,77.85 79.892,98.257 97.141,108.86 	"/>
	<polygon display="inline" fill="none" stroke="#003564" stroke-width="1.8" points="97.141,88.449 79.892,77.85 79.892,98.257 
		97.141,108.86 	"/>
	<polygon display="inline" fill="#003564" points="81.453,155.478 64.204,144.874 64.204,165.285 81.453,175.885 	"/>
	<polygon display="inline" fill="none" stroke="#003564" stroke-width="1.8" points="81.453,155.478 64.204,144.874 64.204,165.285 
		81.453,175.885 	"/>
	<polygon display="inline" fill="#717295" points="80.908,78.472 63.657,67.868 63.657,88.279 80.908,98.879 	"/>
	<polygon display="inline" fill="none" stroke="#003564" stroke-width="1.8" points="80.908,78.472 63.657,67.868 63.657,88.279 
		80.908,98.879 	"/>
	<polygon display="inline" fill="#FFFFFF" points="65.021,68.708 47.771,58.105 47.771,78.513 65.021,89.116 	"/>
	<polygon display="inline" fill="none" stroke="#003564" stroke-width="1.8" points="65.021,68.708 47.771,58.105 47.771,78.513 
		65.021,89.116 	"/>
	<polygon display="inline" fill="#003564" points="81.453,116.342 64.204,105.738 64.204,126.146 81.453,136.75 	"/>
	<polygon display="inline" fill="none" stroke="#003564" stroke-width="1.8" points="81.453,116.342 64.204,105.738 64.204,126.146 
		81.453,136.75 	"/>
	<polygon display="inline" fill="#003564" points="97.141,107.662 79.892,97.06 79.892,117.47 97.141,128.07 	"/>
	<polygon display="inline" fill="none" stroke="#003564" stroke-width="1.8" points="97.141,107.662 79.892,97.06 79.892,117.47 
		97.141,128.07 	"/>
	<polygon display="inline" fill="#717295" points="65.372,88.13 48.123,77.527 48.123,97.938 65.372,108.541 	"/>
	<polygon display="inline" fill="none" stroke="#003564" stroke-width="1.8" points="65.372,88.13 48.123,77.527 48.123,97.938 
		65.372,108.541 	"/>
	<polygon display="inline" fill="#FFFFFF" points="80.908,97.682 63.657,87.081 63.657,107.489 80.908,118.092 	"/>
	<polygon display="inline" fill="none" stroke="#003564" stroke-width="1.8" points="80.908,97.682 63.657,87.081 63.657,107.489 
		80.908,118.092 	"/>
	<polygon display="inline" fill="#717295" points="97.141,145.752 79.892,135.149 79.892,155.561 97.141,166.16 	"/>
	<polygon display="inline" fill="none" stroke="#003564" stroke-width="1.8" points="97.141,145.752 79.892,135.149 79.892,155.561 
		97.141,166.16 	"/>
	<polygon display="inline" fill="#003564" points="64.551,125.158 47.303,114.559 47.303,134.97 64.551,145.568 	"/>
	<polygon display="inline" fill="none" stroke="#003564" stroke-width="1.8" points="64.551,125.158 47.303,114.559 47.303,134.97 
		64.551,145.568 	"/>
	<polygon display="inline" fill="#717295" points="64.551,105.948 47.303,95.346 47.303,115.756 64.551,126.356 	"/>
	<polygon display="inline" fill="none" stroke="#003564" stroke-width="1.8" points="64.551,105.948 47.303,95.346 47.303,115.756 
		64.551,126.356 	"/>
	<polygon display="inline" fill="#FFFFFF" points="81.453,135.552 64.204,124.948 64.204,145.359 81.453,155.962 	"/>
	<polygon display="inline" fill="none" stroke="#003564" stroke-width="1.8" points="81.453,135.552 64.204,124.948 64.204,145.359 
		81.453,155.962 	"/>
	<polygon display="inline" fill="#003564" points="48.32,58.331 31.071,47.729 31.071,68.14 48.32,78.741 	"/>
	<polygon display="inline" fill="none" stroke="#003564" stroke-width="1.8" points="48.32,58.331 31.071,47.729 31.071,68.14 
		48.32,78.741 	"/>
	<polygon display="inline" fill="#003564" points="48.958,96.361 31.708,85.758 31.708,106.169 48.958,116.771 	"/>
	<polygon display="inline" fill="none" stroke="#003564" stroke-width="1.8" points="48.958,96.361 31.708,85.758 31.708,106.169 
		48.958,116.771 	"/>
	<polygon display="inline" fill="#717295" points="48.958,135.497 31.708,124.896 31.708,145.305 48.958,155.906 	"/>
	<polygon display="inline" fill="none" stroke="#003564" stroke-width="1.8" points="48.958,135.497 31.708,124.896 31.708,145.305 
		48.958,155.906 	"/>
	<polygon display="inline" fill="#717295" points="97.047,125.926 79.798,115.326 79.798,135.734 97.047,146.337 	"/>
	<polygon display="inline" fill="none" stroke="#003564" stroke-width="1.8" points="97.047,125.926 79.798,115.326 79.798,135.734 
		97.047,146.337 	"/>
</g>
<g display="none">
	<polygon display="inline" fill="#D8E4EB" points="18.167,79.894 48.32,172.695 145.897,172.695 176.049,79.894 97.11,22.539 	"/>
	<g display="inline">
		<defs>
			<rect id="SVGID_61_" x="17.108" y="21.427" width="160" height="152.168"/>
		</defs>
		<clipPath id="SVGID_62_">
			<use xlink:href="#SVGID_61_"  overflow="visible"/>
		</clipPath>
		<polygon clip-path="url(#SVGID_62_)" fill="none" stroke="#003564" stroke-width="1.8" stroke-miterlimit="10" points="
			48.32,172.694 18.166,79.894 97.11,22.539 176.049,79.894 145.897,172.694 		"/>
		<path clip-path="url(#SVGID_62_)" fill="#717295" d="M35.359,131.093l24.087-44.761c0,0,46.135,42.853,80.985,38.182
			c0.332,15.35-16.834,48.182-16.834,48.182H48.603L35.359,131.093z"/>
		<path clip-path="url(#SVGID_62_)" fill="none" stroke="#003564" stroke-width="1.8" stroke-miterlimit="10" d="M35.359,131.093
			l24.087-44.761c0,0,46.135,42.853,80.985,38.182c0.332,15.35-16.834,48.182-16.834,48.182H48.603L35.359,131.093z"/>
		<path clip-path="url(#SVGID_62_)" fill="#003564" d="M32.549,120.718c0,0,27.397-63.186,62.445-66.499h26.956
			c0,0,23.463,2.986,22.463,31.858c18.47,6.471,21.963,8.927,21.963,8.927l-19.469,9.563v18.343c0,0,2.067,34.378-21.144,48.448
			h-12.479c0,0,22.321-27.413,20.334-42.971c-46.64,3.752-68.011-20.646-75.023-28.103c-9.243,3.477-22.239,31.42-22.239,31.42
			L32.549,120.718z"/>
		<path clip-path="url(#SVGID_62_)" fill="none" stroke="#003564" stroke-width="1.8" stroke-miterlimit="10" d="M32.549,120.718
			c0,0,27.397-63.186,62.445-66.499h26.956c0,0,23.463,2.986,22.463,31.858c18.47,6.471,21.963,8.927,21.963,8.927l-19.469,9.563
			v18.343c0,0,2.067,34.378-21.144,48.448h-12.479c0,0,22.321-27.413,20.334-42.971c-46.64,3.752-68.011-20.646-75.023-28.103
			c-9.243,3.477-22.239,31.42-22.239,31.42L32.549,120.718z"/>
		<path clip-path="url(#SVGID_62_)" fill="#FFFFFF" d="M78.425,84.471h27.771c0,0,3.694-8.506,13.127-5.833
			c8.113,2.295,6.836,13.262,6.836,13.262l11.34,6.228l-11.107,16.687c0,0-9.722,9.402-20.857,3.268
			c-11.746-6.473-20.817-9.65-23.343-18.088C79.668,91.553,78.425,84.471,78.425,84.471"/>
		<path clip-path="url(#SVGID_62_)" fill="none" stroke="#003564" stroke-width="1.8" stroke-miterlimit="10" d="M78.425,84.471
			h27.771c0,0,3.694-8.506,13.127-5.833c8.113,2.295,6.836,13.262,6.836,13.262l11.34,6.228l-11.107,16.687
			c0,0-9.722,9.402-20.857,3.268c-11.746-6.473-20.817-9.65-23.343-18.088C79.668,91.553,78.425,84.471,78.425,84.471z"/>
		<path clip-path="url(#SVGID_62_)" fill="#FFFFFF" d="M122.36,89.269c0-3.948-3.082-7.149-6.888-7.149
			c-3.805,0-6.888,3.201-6.888,7.149s3.083,7.149,6.888,7.149C119.278,96.418,122.36,93.217,122.36,89.269"/>
		
			<ellipse clip-path="url(#SVGID_62_)" fill="none" stroke="#003564" stroke-width="1.8" stroke-miterlimit="10" cx="115.472" cy="89.269" rx="6.888" ry="7.149"/>
		<path clip-path="url(#SVGID_62_)" fill="#003564" d="M121.108,87.346c0-2.193-1.719-3.973-3.838-3.973
			c-2.115,0-3.834,1.779-3.834,3.973c0,2.192,1.719,3.972,3.834,3.972C119.389,91.317,121.108,89.538,121.108,87.346"/>
		<path clip-path="url(#SVGID_62_)" fill="none" stroke="#003564" stroke-width="1.8" stroke-miterlimit="10" d="M121.108,87.346
			c0-2.193-1.719-3.973-3.838-3.973c-2.115,0-3.834,1.779-3.834,3.973c0,2.192,1.719,3.972,3.834,3.972
			C119.389,91.317,121.108,89.538,121.108,87.346z"/>
	</g>
</g>
<g>
	<polygon fill="#D8E4EB" points="17.167,79.894 47.32,172.695 144.897,172.695 175.049,79.894 96.11,22.539 	"/>
	<g>
		<defs>
			<rect id="SVGID_63_" x="16.108" y="21.427" width="160" height="152.168"/>
		</defs>
		<clipPath id="SVGID_64_">
			<use xlink:href="#SVGID_63_"  overflow="visible"/>
		</clipPath>
		<polygon clip-path="url(#SVGID_64_)" fill="none" stroke="#003564" stroke-width="1.8" stroke-miterlimit="10" points="
			47.32,172.694 17.166,79.894 96.109,22.539 175.049,79.894 144.897,172.694 		"/>
		<path clip-path="url(#SVGID_64_)" fill="#003564" d="M55.612,63.613c0-10.09,10.837-28.619,15.053-38.372
			c0,0,9.034,9.223,13.249,16.037c9.634-4.659,17.461-2.589,24.086,0c6.02-9.49,13.85-16.037,13.85-16.037
			s18.065,23.743,16.859,38.389c12.646-2.259,26.724-14.218,28.303-0.072c1.827,16.362-3.613,40.126-19.871,43.423
			c1.202,13.559-3.012,35.896-12.044,43.142c8.431,6.039,6.623,15.096-6.625,17.51c-13.246,2.414-16.817-1.423-16.817-1.423
			s-18.59,6.518-28.558,1.075c0,0-39.327,7.44-29.893-10.336l4.816-5.015c0,0-18.065-23.547-12.646-42.262
			c-17.46-6.642-30.105-57.76-13.847-57.254L55.612,63.613z"/>
		<path clip-path="url(#SVGID_64_)" fill="none" stroke="#003564" stroke-width="1.8" stroke-miterlimit="10" d="M55.612,63.613
			c0-10.09,10.837-28.619,15.053-38.372c0,0,9.034,9.223,13.249,16.037c9.634-4.659,17.461-2.589,24.086,0
			c6.02-9.49,13.85-16.037,13.85-16.037s18.065,23.743,16.859,38.389c12.646-2.259,26.724-14.218,28.303-0.072
			c1.827,16.362-3.613,40.126-19.871,43.423c1.202,13.559-3.012,35.896-12.044,43.142c8.431,6.039,6.623,15.096-6.625,17.51
			c-13.246,2.414-16.817-1.423-16.817-1.423s-18.59,6.518-28.558,1.075c0,0-39.327,7.44-29.893-10.336l4.816-5.015
			c0,0-18.065-23.547-12.646-42.262c-17.46-6.642-30.105-57.76-13.847-57.254L55.612,63.613z"/>
		<path clip-path="url(#SVGID_64_)" fill="#717295" d="M62.88,73.975c0,0-9.623-16.263,6.617-22.966
			c16.24-6.706,15.217,5.208,26.556,5.556c11.337,0.348,9.569-14.956,29.381-3.755c0,0,12.027,7.002,2.404,21.165
			c10.226,11.163,25.442,90.425-31.786,91.627C38.822,166.804,49.647,85.632,62.88,73.975"/>
		<path clip-path="url(#SVGID_64_)" fill="none" stroke="#FFFFFF" stroke-width="0.9" stroke-miterlimit="10" d="M62.88,73.975
			c0,0-9.623-16.263,6.617-22.966c16.24-6.706,15.217,5.208,26.556,5.556c11.337,0.348,9.569-14.956,29.381-3.755
			c0,0,12.027,7.002,2.404,21.165c10.226,11.163,25.442,90.425-31.786,91.627C38.822,166.804,49.647,85.632,62.88,73.975z"/>
		<path clip-path="url(#SVGID_64_)" fill="#FFFFFF" d="M88.265,88.941c0,0,7.049,8.3,6.726,11.617
			c3.824-3.909,7.264-6.993,7.737-13.395c-4.507-1.659-3.026-8.655-7.737-8.772C94.903,82.897,91.584,87.043,88.265,88.941"/>
		<path clip-path="url(#SVGID_64_)" fill="#FFFFFF" d="M91.655,70.934c0,7.41-5.377,13.422-12.011,13.422
			c-6.631,0-12.008-6.012-12.008-13.422c0-7.414,5.377-13.423,12.008-13.423C86.278,57.511,91.655,63.52,91.655,70.934"/>
		<path clip-path="url(#SVGID_64_)" fill="#FFFFFF" d="M124.542,71.624c0,7.796-5.229,14.117-11.679,14.117
			c-6.448,0-11.676-6.321-11.676-14.117c0-7.794,5.228-14.113,11.676-14.113C119.313,57.511,124.542,63.83,124.542,71.624"/>
		<path clip-path="url(#SVGID_64_)" fill="#003564" d="M115.873,67.055c0,2.718-2.177,4.919-4.86,4.919
			c-2.686,0-4.861-2.201-4.861-4.919c0-2.719,2.176-4.92,4.861-4.92C113.696,62.135,115.873,64.336,115.873,67.055"/>
		<path clip-path="url(#SVGID_64_)" fill="#003564" d="M85.419,67.356c0,2.887-2.389,5.225-5.335,5.225
			c-2.947,0-5.335-2.338-5.335-5.225c0-2.883,2.388-5.221,5.335-5.221C83.03,62.136,85.419,64.474,85.419,67.356"/>
	</g>
</g>
</svg>
