<?xml version="1.0" encoding="UTF-8" standalone="no"?>
<svg
   xmlns:dc="http://purl.org/dc/elements/1.1/"
   xmlns:cc="http://creativecommons.org/ns#"
   xmlns:rdf="http://www.w3.org/1999/02/22-rdf-syntax-ns#"
   xmlns:svg="http://www.w3.org/2000/svg"
   xmlns="http://www.w3.org/2000/svg"
   xmlns:xlink="http://www.w3.org/1999/xlink"
   xmlns:sodipodi="http://sodipodi.sourceforge.net/DTD/sodipodi-0.dtd"
   xmlns:inkscape="http://www.inkscape.org/namespaces/inkscape"
   xml:space="preserve"
   enable-background="new 0 0 401.352 183.785"
   viewBox="0 0 726.64052 193.48033"
   height="193.48035"
   width="726.64062"
   y="0px"
   x="0px"
   id="Ebene_1"
   version="1.1"
   inkscape:version="0.91 r13725"
   sodipodi:docname="gb-dariah-tool.svg"><sodipodi:namedview
     pagecolor="#ffffff"
     bordercolor="#666666"
     borderopacity="1"
     objecttolerance="10"
     gridtolerance="10"
     guidetolerance="10"
     inkscape:pageopacity="0"
     inkscape:pageshadow="2"
     inkscape:window-width="1423"
     inkscape:window-height="766"
     id="namedview264"
     showgrid="false"
     inkscape:zoom="1.8567357"
     inkscape:cx="303.14959"
     inkscape:cy="102.77685"
     inkscape:window-x="0"
     inkscape:window-y="46"
     inkscape:window-maximized="0"
     inkscape:current-layer="Ebene_1"
     fit-margin-top="20"
     fit-margin-left="20"
     fit-margin-right="20"
     fit-margin-bottom="20"
     units="px"
     showguides="true"
     inkscape:guide-bbox="true"><sodipodi:guide
       position="321.61998,20.782759"
       orientation="0,1"
       id="guide4052" /><sodipodi:guide
       position="361.33814,114.53609"
       orientation="0,1"
       id="guide4054" /></sodipodi:namedview><metadata
     id="metadata437"><rdf:RDF><cc:Work
         rdf:about=""><dc:format>image/svg+xml</dc:format><dc:type
           rdf:resource="http://purl.org/dc/dcmitype/StillImage" /><dc:title></dc:title></cc:Work></rdf:RDF></metadata><defs
     id="defs435" /><g
     id="g3"
     display="none"
     style="display:none"
     transform="translate(323.87953,-1.1890008)"><text
       id="text5"
       font-size="30.0009"
       display="inline"
       transform="matrix(0.93,0,0,1,168.1692,110.9946)"
       style="font-size:30.00090027px;font-family:ArialRoundedMTBold;display:inline;fill:#003564" />
<text
       id="text7"
       font-size="30.0009"
       display="inline"
       transform="matrix(0.93,0,0,1,189.094,110.9946)"
       style="font-size:30.00090027px;font-family:ArialRoundedMTBold;display:inline;fill:#003564">D</text>
<text
       id="text9"
       letter-spacing="-1.075"
       font-size="30.0009"
       display="inline"
       transform="matrix(0.93,0,0,1,208.6863,110.9946)"
       style="font-size:30.00090027px;font-family:ArialRoundedMTBold;letter-spacing:-1.07500005;display:inline;fill:#003564">A</text>
<text
       id="text11"
       font-size="30.0009"
       display="inline"
       transform="matrix(0.93,0,0,1,226.2986,110.9946)"
       style="font-size:30.00090027px;font-family:ArialRoundedMTBold;display:inline;fill:#003564">T</text>
<text
       id="text13"
       font-size="30.0009"
       display="inline"
       transform="matrix(0.93,0,0,1,242.0056,110.9946)"
       style="font-size:30.00090027px;font-family:ArialRoundedMTBold;display:inline;fill:#003564">A</text>
<text
       id="text15"
       font-size="30.0009"
       display="inline"
       transform="matrix(0.93,0,0,1,165.156,141.9849)"
       style="font-size:30.00090027px;font-family:ArialRoundedMTBold;display:inline;fill:#003564">  FEDER</text>
<text
       id="text17"
       letter-spacing="-1.075"
       font-size="30.0009"
       display="inline"
       transform="matrix(0.93,0,0,1,273.8953,141.9849)"
       style="font-size:30.00090027px;font-family:ArialRoundedMTBold;letter-spacing:-1.07500005;display:inline;fill:#003564">A</text>
<text
       id="text19"
       font-size="30.0009"
       display="inline"
       transform="matrix(0.93,0,0,1,291.5349,141.9849)"
       style="font-size:30.00090027px;font-family:ArialRoundedMTBold;display:inline;fill:#003564">TION </text>
<g
       id="g21"
       display="inline"
       style="display:inline"><g
         id="g23"><defs
           id="defs25"><rect
             height="167.793"
             width="383.95401"
             y="7.1539998"
             x="11.216"
             id="SVGID_1_" /></defs><clipPath
           id="SVGID_2_"><use
             id="use29"
             overflow="visible"
             xlink:href="#SVGID_1_"
             style="overflow:visible"
             x="0"
             y="0"
             width="100%"
             height="100%" /></clipPath><g
           id="g31"
           clip-path="url(#SVGID_2_)"><text
             id="text33"
             font-size="30.0009"
             transform="matrix(0.93,0,0,1,165.1692,172.9946)"
             style="font-size:30.00090027px;font-family:ArialRoundedMTBold;fill:#003564">A</text>
<text
             id="text35"
             font-size="30.0009"
             transform="matrix(0.93,0,0,1,185.2361,172.9946)"
             style="font-size:30.00090027px;font-family:ArialRoundedMTBold;fill:#003564">R</text>
<text
             id="text37"
             font-size="30.0009"
             transform="matrix(0.93,0,0,1,204.9402,172.9946)"
             style="font-size:30.00090027px;font-family:ArialRoundedMTBold;fill:#003564">CHITECTURE</text>
</g></g></g><polygon
       id="polygon39"
       points="12.274,79.998 42.437,172.83 140.044,172.83 170.207,79.998 91.239,22.625 "
       display="inline"
       style="display:inline;fill:#717295" /><g
       id="g41"
       display="inline"
       style="display:inline"><g
         id="g43"><defs
           id="defs45"><rect
             height="167.793"
             width="383.95401"
             y="7.1539998"
             x="11.216"
             id="SVGID_3_" /></defs><clipPath
           id="SVGID_4_"><use
             id="use49"
             overflow="visible"
             xlink:href="#SVGID_3_"
             style="overflow:visible"
             x="0"
             y="0"
             width="100%"
             height="100%" /></clipPath><polygon
           id="polygon51"
           points="12.274,79.998 42.437,172.83 140.044,172.83 170.207,79.998 91.239,22.625 "
           stroke-miterlimit="10"
           clip-path="url(#SVGID_4_)"
           style="fill:none;stroke:#003564;stroke-width:1.79999995;stroke-miterlimit:10" /></g></g><polygon
       id="polygon53"
       points="58.389,33.084 58.389,148.884 127.246,148.662 127.246,33.356 91.965,8.265 "
       display="inline"
       style="display:inline;fill:#003564" /><g
       id="g55"
       display="inline"
       style="display:inline"><g
         id="g57"><defs
           id="defs59"><rect
             height="167.793"
             width="383.95401"
             y="7.1539998"
             x="11.216"
             id="SVGID_5_" /></defs><clipPath
           id="SVGID_6_"><use
             id="use63"
             overflow="visible"
             xlink:href="#SVGID_5_"
             style="overflow:visible"
             x="0"
             y="0"
             width="100%"
             height="100%" /></clipPath><polygon
           id="polygon65"
           points="58.389,33.084 58.389,148.884 127.246,148.662 127.246,33.356 91.965,8.265 "
           stroke-miterlimit="10"
           clip-path="url(#SVGID_6_)"
           style="fill:none;stroke:#717295;stroke-width:1.79999995;stroke-miterlimit:10" /></g><g
         id="g67"><defs
           id="defs69"><rect
             height="167.793"
             width="383.95401"
             y="7.1539998"
             x="11.216"
             id="SVGID_7_" /></defs><clipPath
           id="SVGID_8_"><use
             id="use73"
             overflow="visible"
             xlink:href="#SVGID_7_"
             style="overflow:visible"
             x="0"
             y="0"
             width="100%"
             height="100%" /></clipPath><line
           id="line75"
           y2="8.9230003"
           x2="91.983002"
           y1="144.91"
           x1="91.983002"
           stroke-miterlimit="10"
           clip-path="url(#SVGID_8_)"
           style="fill:none;stroke:#717295;stroke-width:1.79999995;stroke-miterlimit:10" /></g></g><polygon
       id="polygon77"
       points="120.562,98.724 120.562,86.945 99.459,73.24 99.459,86.209 "
       display="inline"
       style="display:inline;fill:#d8e4eb" /><polygon
       id="polygon79"
       points="36.74,155.564 42.377,172.83 105.259,172.666 105.598,82.03 70.316,62.091 36.74,81.814 "
       display="inline"
       style="display:inline;fill:#3d4365" /><g
       id="g81"
       display="inline"
       style="display:inline"><g
         id="g83"><defs
           id="defs85"><rect
             height="167.793"
             width="383.95401"
             y="7.1539998"
             x="11.216"
             id="SVGID_9_" /></defs><clipPath
           id="SVGID_10_"><use
             id="use89"
             overflow="visible"
             xlink:href="#SVGID_9_"
             style="overflow:visible"
             x="0"
             y="0"
             width="100%"
             height="100%" /></clipPath><polygon
           id="polygon91"
           points="36.74,155.564 42.377,172.83 105.259,172.666 105.598,82.03 70.316,62.091 36.74,81.814 "
           stroke-miterlimit="10"
           clip-path="url(#SVGID_10_)"
           style="fill:none;stroke:#717295;stroke-width:1.79999995;stroke-miterlimit:10" /></g><g
         id="g93"><defs
           id="defs95"><rect
             height="167.793"
             width="383.95401"
             y="7.1539998"
             x="11.216"
             id="SVGID_11_" /></defs><clipPath
           id="SVGID_12_"><use
             id="use99"
             overflow="visible"
             xlink:href="#SVGID_11_"
             style="overflow:visible"
             x="0"
             y="0"
             width="100%"
             height="100%" /></clipPath><line
           id="line101"
           y2="173.3"
           x2="70.188004"
           y1="62.702999"
           x1="70.188004"
           stroke-miterlimit="10"
           clip-path="url(#SVGID_12_)"
           style="fill:none;stroke:#717295;stroke-width:1.79999995;stroke-miterlimit:10" /></g></g><polygon
       id="polygon103"
       points="89.621,171 138.841,171.128 159.634,106.386 124.095,92.301 89.751,106.292 "
       display="inline"
       style="display:inline;fill:#ffffff" /><polygon
       id="polygon105"
       points="89.621,171 138.841,171.128 159.634,106.386 124.095,92.301 89.751,106.292 "
       stroke-miterlimit="10"
       display="inline"
       style="display:inline;fill:none;stroke:#003564;stroke-width:1.79999995;stroke-miterlimit:10" /><line
       id="line107"
       y2="171.04601"
       x2="124.266"
       y1="92.875"
       x1="124.266"
       stroke-miterlimit="10"
       display="inline"
       style="display:inline;fill:none;stroke:#003564;stroke-width:1.79999995;stroke-miterlimit:10" /><polygon
       id="polygon109"
       points="120.562,50.834 120.562,39.055 99.459,23.942 99.459,35.502 "
       display="inline"
       style="display:inline;fill:#d8e4eb" /><polygon
       id="polygon111"
       points="120.562,74.954 120.562,63.174 99.459,49.469 99.459,61.029 "
       display="inline"
       style="display:inline;fill:#d8e4eb" /><polygon
       id="polygon113"
       points="124.157,103.953 89.73,118.583 89.722,125.789 124.157,112.302 153.496,121.425 155.152,115.152 "
       display="inline"
       style="display:inline;fill:#003564" /><polygon
       id="polygon115"
       points="124.157,103.953 89.73,118.583 89.722,125.789 124.157,112.302 153.496,121.425 155.152,115.152 "
       stroke-miterlimit="10"
       display="inline"
       style="display:inline;fill:none;stroke:#003564;stroke-width:1.75899994;stroke-miterlimit:10" /><polygon
       id="polygon117"
       points="124.583,127.046 90.089,138.75 90.082,146 124.583,135.446 148.225,141.611 149.885,135.298 "
       display="inline"
       style="display:inline;fill:#003564" /><polygon
       id="polygon119"
       points="124.583,127.046 90.089,138.75 90.082,146 124.583,135.446 148.225,141.611 149.885,135.298 "
       stroke-miterlimit="10"
       display="inline"
       style="display:inline;fill:none;stroke:#003564;stroke-width:1.75899994;stroke-miterlimit:10" /><polygon
       id="polygon121"
       points="124.328,151.658 89.731,160.419 89.722,167.734 124.328,160.128 140.825,163.305 143.204,156.94 "
       display="inline"
       style="display:inline;fill:#003564" /><polygon
       id="polygon123"
       points="124.328,151.658 89.731,160.419 89.722,167.734 124.328,160.128 140.825,163.305 143.204,156.94 "
       stroke-miterlimit="10"
       display="inline"
       style="display:inline;fill:none;stroke:#003564;stroke-width:1.75899994;stroke-miterlimit:10" /><polygon
       id="polygon125"
       points="97.502,98.486 97.502,86.707 76.399,75.819 76.399,87.378 "
       display="inline"
       style="display:inline;fill:#ffffff" /><polygon
       id="polygon127"
       points="42.417,98.486 42.417,86.707 63.52,75.819 63.52,87.378 "
       display="inline"
       style="display:inline;fill:#ffffff" /><polygon
       id="polygon129"
       points="42.417,129.408 42.417,117.628 63.52,109.557 63.52,122.527 "
       display="inline"
       style="display:inline;fill:#ffffff" /><polygon
       id="polygon131"
       points="42.417,159.688 42.417,147.91 63.52,142.656 63.52,155.625 "
       display="inline"
       style="display:inline;fill:#ffffff" /><polygon
       id="polygon133"
       points="64.318,50.834 64.318,39.055 85.421,23.942 85.421,35.502 "
       display="inline"
       style="display:inline;fill:#d8e4eb" /></g><g
     id="g135"
     display="none"
     style="display:none"
     transform="translate(323.87953,-1.1890008)"><polygon
       id="polygon137"
       points="169.62,81.417 139.582,173.869 42.374,173.869 12.335,81.417 90.979,24.281 "
       display="inline"
       style="display:inline;fill:#003564" /><g
       id="g139"
       display="inline"
       style="display:inline"><g
         id="g141"><defs
           id="defs143"><rect
             height="162.842"
             width="383.58301"
             y="23.104"
             x="11.216"
             id="SVGID_13_" /></defs><clipPath
           id="SVGID_14_"><use
             id="use147"
             overflow="visible"
             xlink:href="#SVGID_13_"
             style="overflow:visible"
             x="0"
             y="0"
             width="100%"
             height="100%" /></clipPath><polygon
           id="polygon149"
           points="169.62,81.417 139.582,173.869 42.374,173.869 12.335,81.417 90.979,24.281 "
           stroke-miterlimit="10"
           clip-path="url(#SVGID_14_)"
           style="fill:none;stroke:#003564;stroke-width:1.90400004;stroke-miterlimit:10" /></g></g><polyline
       id="polyline151"
       points="143.321,184.75 179.179,75.886 161.51,73.589  "
       display="inline"
       style="display:inline;fill:#003564" /><g
       id="g153"
       display="inline"
       style="display:inline"><g
         id="g155"><defs
           id="defs157"><rect
             height="162.842"
             width="383.58301"
             y="23.104"
             x="11.216"
             id="SVGID_15_" /></defs><clipPath
           id="SVGID_16_"><use
             id="use161"
             overflow="visible"
             xlink:href="#SVGID_15_"
             style="overflow:visible"
             x="0"
             y="0"
             width="100%"
             height="100%" /></clipPath><polyline
           id="polyline163"
           points="     143.321,184.75 179.179,75.886 161.51,73.589    "
           stroke-miterlimit="10"
           clip-path="url(#SVGID_16_)"
           style="fill:none;stroke:#717295;stroke-width:1.90400004;stroke-miterlimit:10" /></g></g><polyline
       id="polyline165"
       points="146.824,85.272 151.615,72.05 177.953,75.943 160.146,104.046 139.939,101.148     "
       display="inline"
       style="display:inline;fill:#717295" /><polyline
       id="polyline167"
       points="146.824,85.272    151.615,72.05 177.953,75.943 160.146,104.046 139.939,101.148  "
       stroke-miterlimit="10"
       display="inline"
       style="display:inline;fill:none;stroke:#717295;stroke-width:1.90400004;stroke-miterlimit:10" /><polygon
       id="polygon169"
       points="43.795,167.567 144.646,184.901 161.935,59.966 115.829,52.564 104.303,64.537 50.327,58.225 16.378,83.104 "
       display="inline"
       style="display:inline;fill:#717295" /><g
       id="g171"
       display="inline"
       style="display:inline"><g
         id="g173"><defs
           id="defs175"><rect
             height="162.842"
             width="383.58301"
             y="23.104"
             x="11.216"
             id="SVGID_17_" /></defs><clipPath
           id="SVGID_18_"><use
             id="use179"
             overflow="visible"
             xlink:href="#SVGID_17_"
             style="overflow:visible"
             x="0"
             y="0"
             width="100%"
             height="100%" /></clipPath><polygon
           id="polygon181"
           points="43.795,167.567 144.646,184.901 161.935,59.966 115.829,52.564 104.303,64.537 50.327,58.225 16.378,83.104 "
           stroke-miterlimit="10"
           clip-path="url(#SVGID_18_)"
           style="fill:none;stroke:#ffffff;stroke-width:1.79999995;stroke-miterlimit:10" /></g></g><polygon
       id="polygon183"
       points="80.022,124.187 137.509,133.107 142.043,97.774 84.554,88.854 "
       display="inline"
       style="display:inline;fill:#d8e4eb" /><polygon
       id="polygon185"
       points="80.022,124.187 137.509,133.107 142.043,97.774 84.554,88.854 "
       stroke-miterlimit="10"
       display="inline"
       style="display:inline;fill:none;stroke:#003564;stroke-width:1.90400004;stroke-miterlimit:10" /><path
       id="path187"
       d="M 132.445,120.25 89.779,113.019 M 134.167,107.8 91.501,100.571"
       stroke-miterlimit="10"
       display="inline"
       inkscape:connector-curvature="0"
       style="display:inline;fill:none;stroke:#003564;stroke-width:1.90400004;stroke-miterlimit:10" /><text
       id="text189"
       font-size="30.0009"
       display="inline"
       transform="matrix(0.93,0,0,1,167.7991,112.6851)"
       style="font-size:30.00090027px;font-family:ArialRoundedMTBold;display:inline;fill:#003564" />
<text
       id="text191"
       font-size="30.0009"
       display="inline"
       transform="matrix(0.93,0,0,1,164.7859,143.6743)"
       style="font-size:30.00090027px;font-family:ArialRoundedMTBold;display:inline;fill:#003564">  COLLECTION </text>
<text
       id="text193"
       font-size="30.0009"
       display="inline"
       transform="matrix(0.93,0,0,1,164.7859,174.6646)"
       style="font-size:30.00090027px;font-family:ArialRoundedMTBold;display:inline;fill:#003564">REGIST</text>
<text
       id="text195"
       font-size="30.0009"
       display="inline"
       transform="matrix(0.93,0,0,1,270.3376,174.6646)"
       style="font-size:30.00090027px;font-family:ArialRoundedMTBold;display:inline;fill:#003564">R</text>
<text
       id="text197"
       font-size="30.0009"
       display="inline"
       transform="matrix(0.93,0,0,1,289.3435,174.6646)"
       style="font-size:30.00090027px;font-family:ArialRoundedMTBold;display:inline;fill:#003564">Y</text>
</g><g
     id="g4056"
     transform="translate(-39.999998,4.3978909e-7)"><g
       transform="translate(363.87953,-1.189002)"
       id="g199"><polygon
         style="fill:#003564"
         points="92.218,23.375 171.158,80.73 141.005,173.531 43.428,173.531 13.274,80.73 "
         id="polygon201" /><g
         id="g203"><g
           id="g205"><defs
             id="defs207"><rect
               id="SVGID_19_"
               x="12.216"
               y="21.188999"
               width="383.72699"
               height="154.757" /></defs><clipPath
             id="SVGID_20_"><use
               height="100%"
               width="100%"
               y="0"
               x="0"
               style="overflow:visible"
               xlink:href="#SVGID_19_"
               overflow="visible"
               id="use211" /></clipPath><polygon
             style="fill:none;stroke:#003564;stroke-width:1.79999995;stroke-miterlimit:10"
             clip-path="url(#SVGID_20_)"
             stroke-miterlimit="10"
             points="92.218,23.375 171.158,80.73 141.005,173.531 43.428,173.531 13.274,80.73 "
             id="polygon213" /></g><g
           id="g215"><defs
             id="defs217"><rect
               id="SVGID_21_"
               x="12.216"
               y="21.188999"
               width="383.72699"
               height="154.757" /></defs><clipPath
             id="SVGID_22_"><use
               height="100%"
               width="100%"
               y="0"
               x="0"
               style="overflow:visible"
               xlink:href="#SVGID_21_"
               overflow="visible"
               id="use221" /></clipPath><path
             style="fill:#ffffff"
             inkscape:connector-curvature="0"
             clip-path="url(#SVGID_22_)"
             d="m 158.69,110.813 c -7.413,36.931 -43.361,60.858 -80.291,53.448 -36.932,-7.413 -60.86,-43.36 -53.448,-80.292 7.414,-36.931 43.36,-60.859 80.292,-53.447 36.929,7.414 60.861,43.361 53.447,80.291"
             id="path223" /></g><g
           id="g225"><defs
             id="defs227"><rect
               id="SVGID_23_"
               x="12.216"
               y="21.188999"
               width="383.72699"
               height="154.757" /></defs><clipPath
             id="SVGID_24_"><use
               height="100%"
               width="100%"
               y="0"
               x="0"
               style="overflow:visible"
               xlink:href="#SVGID_23_"
               overflow="visible"
               id="use231" /></clipPath><circle
             style="fill:none;stroke:#003564;stroke-width:1.79999995;stroke-miterlimit:10"
             clip-path="url(#SVGID_24_)"
             stroke-miterlimit="10"
             cx="91.820999"
             cy="97.391998"
             r="68.203003"
             id="circle233" /></g><g
           id="g235"><defs
             id="defs237"><rect
               id="SVGID_25_"
               x="12.216"
               y="21.188999"
               width="383.72699"
               height="154.757" /></defs><clipPath
             id="SVGID_26_"><use
               height="100%"
               width="100%"
               y="0"
               x="0"
               style="overflow:visible"
               xlink:href="#SVGID_25_"
               overflow="visible"
               id="use241" /></clipPath><path
             style="fill:#717295"
             inkscape:connector-curvature="0"
             clip-path="url(#SVGID_26_)"
             d="m 44.873,171.615 c 0,0 -0.816,-12.41 29.037,-3.494 l -1.035,3.461 -28.002,0.033 z"
             id="path243" /></g><g
           id="g245"><defs
             id="defs247"><rect
               id="SVGID_27_"
               x="12.216"
               y="21.188999"
               width="383.72699"
               height="154.757" /></defs><clipPath
             id="SVGID_28_"><use
               height="100%"
               width="100%"
               y="0"
               x="0"
               style="overflow:visible"
               xlink:href="#SVGID_27_"
               overflow="visible"
               id="use251" /></clipPath><path
             style="fill:#d8e4eb"
             inkscape:connector-curvature="0"
             clip-path="url(#SVGID_28_)"
             d="m 106.388,50.072 c 0,0 -20.777,-1.731 -23.663,3.463 -2.886,5.194 -0.962,14.428 -7.407,19.334 -6.444,4.906 -7.155,11.142 -2.9,15.005 4.254,3.863 11.199,3.175 13.783,-4.617 2.585,-7.791 19.868,-17.219 14.689,-4.857 -5.18,12.36 -23.646,31.27 -31.149,21.383 -7.504,-9.887 -3.167,-20.276 -8.942,-17.392 -5.775,2.887 -2.023,14.331 -5.197,20.151 -3.176,5.82 -12.227,1.203 -16.502,6.975 -4.277,5.771 -8.056,12.945 -4.341,21.369 4.09,9.271 22.672,28.675 43.307,31.416 12.585,-7.75 16.78,-8.344 17.357,-17.291 0.577,-8.944 15.583,-14.717 15.294,-2.309 -0.288,12.408 2.229,14.58 6.684,10.826 4.456,-3.755 57.631,-46.113 17.93,-98.61 -18.109,-23.947 -21.382,-18.296 -21.382,-18.296 0,0 6.051,13.491 -7.561,13.45"
             id="path253" /></g><g
           id="g255"><defs
             id="defs257"><rect
               id="SVGID_29_"
               x="12.216"
               y="21.188999"
               width="383.72699"
               height="154.757" /></defs><clipPath
             id="SVGID_30_"><use
               height="100%"
               width="100%"
               y="0"
               x="0"
               style="overflow:visible"
               xlink:href="#SVGID_29_"
               overflow="visible"
               id="use261" /></clipPath><path
             style="fill:#717295"
             inkscape:connector-curvature="0"
             clip-path="url(#SVGID_30_)"
             d="m 141.627,98.179 c 0,0 -8.844,10.666 -18.18,9.363 -9.336,-1.303 -12.697,0.496 -4.329,14.06 8.369,13.562 13.107,10.547 7.131,21.288 -5.977,10.742 8.452,2.951 13.646,-17.248 5.194,-20.2 7.792,-36.744 1.732,-27.463"
             id="path263" /></g><g
           id="g265"><defs
             id="defs267"><rect
               id="SVGID_31_"
               x="12.216"
               y="21.188999"
               width="383.72699"
               height="154.757" /></defs><clipPath
             id="SVGID_32_"><use
               height="100%"
               width="100%"
               y="0"
               x="0"
               style="overflow:visible"
               xlink:href="#SVGID_31_"
               overflow="visible"
               id="use271" /></clipPath><path
             style="fill:#003564"
             inkscape:connector-curvature="0"
             clip-path="url(#SVGID_32_)"
             d="m 149.638,91.758 c 0,0 -5.752,12.025 -11.543,18.555 -3.063,3.453 -10.457,5.049 -14.718,5.14 -4.26,0.09 2.578,14.162 13.128,15.588 7.43,1.001 13.133,-39.283 13.133,-39.283"
             id="path273" /></g><g
           id="g275"><defs
             id="defs277"><rect
               id="SVGID_33_"
               x="12.216"
               y="21.188999"
               width="383.72699"
               height="154.757" /></defs><clipPath
             id="SVGID_34_"><use
               height="100%"
               width="100%"
               y="0"
               x="0"
               style="overflow:visible"
               xlink:href="#SVGID_33_"
               overflow="visible"
               id="use281" /></clipPath><path
             style="fill:none;stroke:#003564;stroke-width:0.89999998;stroke-miterlimit:10"
             inkscape:connector-curvature="0"
             clip-path="url(#SVGID_34_)"
             stroke-miterlimit="10"
             d="M 74.199,162.958 C 5.149,141.978 40.491,27.914 110.131,31.402"
             id="path283" /></g><g
           id="g285"><defs
             id="defs287"><rect
               id="SVGID_35_"
               x="12.216"
               y="21.188999"
               width="383.72699"
               height="154.757" /></defs><clipPath
             id="SVGID_36_"><use
               height="100%"
               width="100%"
               y="0"
               x="0"
               style="overflow:visible"
               xlink:href="#SVGID_35_"
               overflow="visible"
               id="use291" /></clipPath><path
             style="fill:#717295"
             inkscape:connector-curvature="0"
             clip-path="url(#SVGID_36_)"
             d="M 104.978,70.237 C 96.643,66.682 92.57,69.659 87.375,75.43 c -5.193,5.771 -8.529,9.812 -4.842,0 3.688,-9.812 10.556,-10.677 10.44,-15.294 -0.115,-4.617 12.293,-3.463 16.333,0 4.04,3.463 3.462,15.006 15.005,14.141 11.543,-0.866 10.679,18.758 -1.73,18.469 -12.41,-0.289 -26.044,5.482 -21.535,-3.462 4.51,-8.948 9.468,-16.687 3.932,-19.047"
             id="path293" /></g><g
           id="g295"><defs
             id="defs297"><rect
               id="SVGID_37_"
               x="12.216"
               y="21.188999"
               width="383.72699"
               height="154.757" /></defs><clipPath
             id="SVGID_38_"><use
               height="100%"
               width="100%"
               y="0"
               x="0"
               style="overflow:visible"
               xlink:href="#SVGID_37_"
               overflow="visible"
               id="use301" /></clipPath><path
             style="fill:#717295"
             inkscape:connector-curvature="0"
             clip-path="url(#SVGID_38_)"
             d="m 76.987,133.466 c 10.312,5.158 7.736,1.156 14.835,-1.153 7.097,-2.308 9.7,-5.771 14.891,-5.481 5.191,0.289 4.038,-1.154 8.654,4.903 4.617,6.062 4.839,14.849 0,10.968 -4.838,-3.883 -0.288,-12.121 -10.389,-10.679 -10.101,1.442 -9.235,10.39 -18.47,9.524 -9.232,-0.867 -27.979,6.058 -27.118,-2.022 0.859,-8.079 -8.952,-5.388 -10.395,-9.042 -1.442,-3.652 7.327,-1.128 14.428,-2.211 7.103,-1.082 9.524,3.174 13.564,5.193"
             id="path303" /></g><g
           id="g305"><defs
             id="defs307"><rect
               id="SVGID_39_"
               x="12.216"
               y="21.188999"
               width="383.72699"
               height="154.757" /></defs><clipPath
             id="SVGID_40_"><use
               height="100%"
               width="100%"
               y="0"
               x="0"
               style="overflow:visible"
               xlink:href="#SVGID_39_"
               overflow="visible"
               id="use311" /></clipPath><path
             style="fill:#717295"
             inkscape:connector-curvature="0"
             clip-path="url(#SVGID_40_)"
             d="m 62.207,115.035 c 3.772,-0.853 11.33,-0.578 10.712,-3.176 -0.616,-2.598 7.172,-8.656 8.039,-4.04 0.866,4.617 -4.611,14.429 -9.376,14.429 -4.763,0 -13.909,-6.192 -9.375,-7.213"
             id="path313" /></g><g
           id="g315"><defs
             id="defs317"><rect
               id="SVGID_41_"
               x="12.216"
               y="21.188999"
               width="383.72699"
               height="154.757" /></defs><clipPath
             id="SVGID_42_"><use
               height="100%"
               width="100%"
               y="0"
               x="0"
               style="overflow:visible"
               xlink:href="#SVGID_41_"
               overflow="visible"
               id="use321" /></clipPath><path
             style="fill:none;stroke:#003564;stroke-width:0.89999998;stroke-miterlimit:10"
             inkscape:connector-curvature="0"
             clip-path="url(#SVGID_42_)"
             stroke-miterlimit="10"
             d="M 79.292,163.893 C 128.318,155.942 153.308,53.787 115.101,32.454 M 114.79,32.24 C 89.223,26.26 52.992,139.29 74.822,162.778"
             id="path323" /></g><g
           id="g325"><defs
             id="defs327"><rect
               id="SVGID_43_"
               x="12.216"
               y="21.188999"
               width="383.72699"
               height="154.757" /></defs><clipPath
             id="SVGID_44_"><use
               height="100%"
               width="100%"
               y="0"
               x="0"
               style="overflow:visible"
               xlink:href="#SVGID_43_"
               overflow="visible"
               id="use331" /></clipPath><path
             style="fill:#003564"
             inkscape:connector-curvature="0"
             clip-path="url(#SVGID_44_)"
             d="m 116.562,77.955 c -4.092,-3.405 9.432,-2.01 10.292,2.193 0.857,4.203 2.857,6.529 -1.221,8.572 -4.079,2.042 -20.815,3.631 -15.207,0.749 7.078,-3.635 8.743,-9.346 6.136,-11.514"
             id="path333" /></g><g
           id="g335"><defs
             id="defs337"><rect
               id="SVGID_45_"
               x="12.216"
               y="21.188999"
               width="383.72699"
               height="154.757" /></defs><clipPath
             id="SVGID_46_"><use
               height="100%"
               width="100%"
               y="0"
               x="0"
               style="overflow:visible"
               xlink:href="#SVGID_45_"
               overflow="visible"
               id="use341" /></clipPath><path
             style="fill:#003564"
             inkscape:connector-curvature="0"
             clip-path="url(#SVGID_46_)"
             d="m 96.062,60.713 c 1.923,-3.129 12.092,-0.374 12.379,2.699 0.288,3.072 -2.857,4.516 -6.189,3.072 -3.333,-1.442 -9.912,0.289 -6.19,-5.771"
             id="path343" /></g><g
           id="g345"><defs
             id="defs347"><rect
               id="SVGID_47_"
               x="12.216"
               y="21.188999"
               width="383.72699"
               height="154.757" /></defs><clipPath
             id="SVGID_48_"><use
               height="100%"
               width="100%"
               y="0"
               x="0"
               style="overflow:visible"
               xlink:href="#SVGID_47_"
               overflow="visible"
               id="use351" /></clipPath><path
             style="fill:#003564"
             inkscape:connector-curvature="0"
             clip-path="url(#SVGID_48_)"
             d="m 107.051,81.491 c 2.579,-2.886 7.386,-4.729 6.908,0 -0.478,4.729 -5.158,6.637 -6.908,6.349 -1.75,-0.288 0,-6.349 0,-6.349"
             id="path353" /></g><g
           id="g355"><defs
             id="defs357"><rect
               id="SVGID_49_"
               x="12.216"
               y="21.188999"
               width="383.72699"
               height="154.757" /></defs><clipPath
             id="SVGID_50_"><use
               height="100%"
               width="100%"
               y="0"
               x="0"
               style="overflow:visible"
               xlink:href="#SVGID_49_"
               overflow="visible"
               id="use361" /></clipPath><path
             style="fill:#003564"
             inkscape:connector-curvature="0"
             clip-path="url(#SVGID_50_)"
             d="m 71.511,116.442 c 0,0 -5.881,4.558 -0.497,3.776 5.384,-0.782 7.092,-6.95 7.092,-8.684 0,-1.729 -3.092,4.331 -6.595,4.908"
             id="path363" /></g><g
           id="g365"><defs
             id="defs367"><rect
               id="SVGID_51_"
               x="12.216"
               y="21.188999"
               width="383.72699"
               height="154.757" /></defs><clipPath
             id="SVGID_52_"><use
               height="100%"
               width="100%"
               y="0"
               x="0"
               style="overflow:visible"
               xlink:href="#SVGID_51_"
               overflow="visible"
               id="use371" /></clipPath><path
             style="fill:#003564"
             inkscape:connector-curvature="0"
             clip-path="url(#SVGID_52_)"
             d="m 62.847,138.664 c -1.932,-2.537 -1.153,-5.197 -4.616,-6.061 -3.464,-0.867 5.233,-3.064 8.645,-2.119 3.411,0.946 5.781,6.446 9.822,6.734 4.041,0.289 6.059,2.887 9.812,1.443 3.753,-1.444 6.696,-6.349 9.554,-6.638 2.855,-0.289 11.998,-5.866 16.477,-1.772 4.479,4.096 2.786,3.832 -2.408,0.231 -5.192,-3.601 -8.752,2.458 -15.177,3.44 -6.425,0.986 -0.542,7.334 -15.314,5.17 -14.772,-2.164 -12.179,5.63 -16.795,-0.428"
             id="path373" /></g><g
           id="g375"><defs
             id="defs377"><rect
               id="SVGID_53_"
               x="12.216"
               y="21.188999"
               width="383.72699"
               height="154.757" /></defs><clipPath
             id="SVGID_54_"><use
               height="100%"
               width="100%"
               y="0"
               x="0"
               style="overflow:visible"
               xlink:href="#SVGID_53_"
               overflow="visible"
               id="use381" /></clipPath><path
             style="fill:#717295"
             inkscape:connector-curvature="0"
             clip-path="url(#SVGID_54_)"
             d="m 105.976,29.299 c 0,0 2.03,-7.197 6.963,-7.21 4.024,-0.013 4.824,4.9 4.372,7.182 57.155,35.93 44.371,139.154 -36.411,139.379 -0.622,1.887 -0.905,3.412 -0.519,4.842 l -8.176,0.023 c 0,0 3.568,-4.989 3.554,-9.4 72.724,2.467 95.602,-96.764 30.217,-134.816"
             id="path383" /></g><g
           id="g385"><defs
             id="defs387"><rect
               id="SVGID_55_"
               x="12.216"
               y="21.188999"
               width="383.72699"
               height="154.757" /></defs><clipPath
             id="SVGID_56_"><use
               height="100%"
               width="100%"
               y="0"
               x="0"
               style="overflow:visible"
               xlink:href="#SVGID_55_"
               overflow="visible"
               id="use391" /></clipPath><path
             style="fill:none;stroke:#003564;stroke-width:1.79999995;stroke-miterlimit:10"
             inkscape:connector-curvature="0"
             clip-path="url(#SVGID_56_)"
             stroke-miterlimit="10"
             d="m 105.976,29.299 c 0,0 2.03,-7.197 6.963,-7.21 4.024,-0.013 4.824,4.9 4.372,7.182 57.155,35.93 44.371,139.154 -36.411,139.379 -0.622,1.887 -0.905,3.412 -0.519,4.842 l -8.176,0.023 c 0,0 3.568,-4.989 3.554,-9.4 72.724,2.467 95.602,-96.764 30.217,-134.816 z"
             id="path393" /></g><g
           id="g395"><defs
             id="defs397"><rect
               id="SVGID_57_"
               x="12.216"
               y="21.188999"
               width="383.72699"
               height="154.757" /></defs><clipPath
             id="SVGID_58_"><use
               height="100%"
               width="100%"
               y="0"
               x="0"
               style="overflow:visible"
               xlink:href="#SVGID_57_"
               overflow="visible"
               id="use401" /></clipPath><g
             clip-path="url(#SVGID_58_)"
             id="g403"><g
               enable-background="new    "
               id="g405"><path
                 style="fill:#003564"
                 inkscape:connector-curvature="0"
                 d="m 186.363,165.263 0,4.117 c 0,0.547 -0.05,0.984 -0.15,1.311 -0.1,0.328 -0.284,0.623 -0.552,0.887 -0.268,0.264 -0.611,0.518 -1.028,0.762 -1.208,0.703 -2.371,1.216 -3.488,1.538 -1.117,0.322 -2.334,0.483 -3.651,0.483 -1.535,0 -2.934,-0.254 -4.196,-0.762 -1.263,-0.508 -2.339,-1.245 -3.229,-2.212 -0.89,-0.967 -1.574,-2.139 -2.05,-3.516 -0.477,-1.377 -0.715,-2.915 -0.715,-4.614 0,-1.67 0.231,-3.199 0.695,-4.586 0.464,-1.387 1.145,-2.562 2.043,-3.529 0.898,-0.967 1.993,-1.707 3.283,-2.22 1.29,-0.513 2.752,-0.769 4.387,-0.769 1.344,0 2.534,0.192 3.569,0.578 1.036,0.386 1.875,0.871 2.521,1.457 0.645,0.586 1.131,1.207 1.458,1.861 0.327,0.654 0.491,1.234 0.491,1.742 0,0.547 -0.189,1.014 -0.565,1.399 -0.377,0.386 -0.829,0.579 -1.355,0.579 -0.291,0 -0.57,-0.074 -0.838,-0.221 -0.268,-0.146 -0.493,-0.352 -0.674,-0.615 -0.5,-0.84 -0.922,-1.475 -1.267,-1.904 -0.345,-0.429 -0.811,-0.791 -1.396,-1.084 -0.585,-0.293 -1.333,-0.439 -2.241,-0.439 -0.936,0 -1.771,0.174 -2.507,0.521 -0.735,0.347 -1.365,0.85 -1.887,1.509 -0.522,0.659 -0.922,1.467 -1.199,2.424 -0.277,0.958 -0.416,2.018 -0.416,3.18 0,2.52 0.538,4.458 1.614,5.815 1.076,1.357 2.577,2.036 4.502,2.036 0.936,0 1.814,-0.132 2.636,-0.396 0.822,-0.264 1.655,-0.64 2.5,-1.128 l 0,-3.486 -3.133,0 c -0.754,0 -1.324,-0.122 -1.709,-0.366 -0.386,-0.244 -0.579,-0.659 -0.579,-1.245 0,-0.479 0.161,-0.874 0.484,-1.188 0.322,-0.312 0.76,-0.469 1.314,-0.469 l 4.591,0 c 0.563,0 1.04,0.055 1.431,0.162 0.39,0.107 0.706,0.347 0.947,0.717 0.238,0.373 0.359,0.93 0.359,1.671 z"
                 id="path407" /><path
                 style="fill:#003564"
                 inkscape:connector-curvature="0"
                 d="m 203.379,155.875 -9.114,0 0,5.273 8.392,0 c 0.617,0 1.078,0.148 1.383,0.446 0.305,0.298 0.457,0.69 0.457,1.179 0,0.489 -0.15,0.887 -0.45,1.194 -0.3,0.307 -0.763,0.462 -1.39,0.462 l -8.392,0 0,6.108 9.427,0 c 0.637,0 1.115,0.159 1.438,0.476 0.322,0.318 0.484,0.74 0.484,1.268 0,0.508 -0.162,0.92 -0.484,1.238 -0.322,0.316 -0.801,0.476 -1.438,0.476 l -10.993,0 c -0.881,0 -1.515,-0.21 -1.9,-0.63 -0.386,-0.42 -0.579,-1.099 -0.579,-2.036 l 0,-16.144 c 0,-0.625 0.086,-1.135 0.259,-1.53 0.173,-0.395 0.443,-0.684 0.811,-0.864 0.368,-0.18 0.838,-0.271 1.41,-0.271 l 10.681,0 c 0.645,0 1.123,0.154 1.438,0.462 0.312,0.308 0.469,0.71 0.469,1.208 0,0.508 -0.156,0.916 -0.469,1.224 -0.317,0.306 -0.796,0.461 -1.44,0.461 z"
                 id="path409" /><path
                 style="fill:#003564"
                 inkscape:connector-curvature="0"
                 d="m 217.615,152.154 c 2.07,0 3.848,0.451 5.332,1.354 1.485,0.903 2.609,2.188 3.373,3.853 0.762,1.665 1.144,3.621 1.144,5.867 0,1.66 -0.209,3.169 -0.626,4.526 -0.418,1.357 -1.045,2.534 -1.881,3.53 -0.836,0.996 -1.861,1.758 -3.078,2.285 -1.217,0.527 -2.611,0.791 -4.183,0.791 -1.562,0 -2.961,-0.271 -4.196,-0.812 -1.234,-0.543 -2.266,-1.307 -3.092,-2.293 -0.826,-0.986 -1.451,-2.173 -1.873,-3.56 -0.423,-1.387 -0.634,-2.886 -0.634,-4.497 0,-1.65 0.22,-3.164 0.661,-4.541 0.439,-1.377 1.078,-2.549 1.914,-3.516 0.835,-0.967 1.852,-1.707 3.051,-2.22 1.199,-0.513 2.562,-0.767 4.088,-0.767 z m 5.748,11.045 c 0,-1.572 -0.236,-2.936 -0.709,-4.088 -0.472,-1.152 -1.146,-2.023 -2.022,-2.614 -0.876,-0.591 -1.882,-0.886 -3.017,-0.886 -0.809,0 -1.557,0.163 -2.242,0.49 -0.685,0.327 -1.275,0.803 -1.771,1.428 -0.496,0.625 -0.886,1.424 -1.171,2.396 -0.287,0.972 -0.43,2.063 -0.43,3.274 0,1.221 0.143,2.324 0.43,3.311 0.285,0.986 0.689,1.805 1.212,2.453 0.522,0.65 1.122,1.136 1.798,1.458 0.677,0.322 1.419,0.483 2.228,0.483 1.036,0 1.987,-0.278 2.854,-0.835 0.867,-0.557 1.557,-1.416 2.07,-2.578 0.513,-1.162 0.77,-2.593 0.77,-4.292 z"
                 id="path411" /><path
                 style="fill:#003564"
                 inkscape:connector-curvature="0"
                 d="m 235.556,167.959 -4.305,0 c -0.654,0 -1.152,-0.163 -1.492,-0.491 -0.341,-0.326 -0.512,-0.749 -0.512,-1.267 0,-0.527 0.166,-0.954 0.498,-1.282 0.331,-0.326 0.833,-0.49 1.506,-0.49 l 4.305,0 c 0.672,0 1.174,0.164 1.505,0.49 0.331,0.328 0.497,0.755 0.497,1.282 0,0.518 -0.164,0.94 -0.49,1.267 -0.327,0.328 -0.831,0.491 -1.512,0.491 z"
                 id="path413" /><path
                 style="fill:#003564"
                 inkscape:connector-curvature="0"
                 d="m 248.743,173.995 -6.103,0 c -0.881,0 -1.51,-0.212 -1.887,-0.638 -0.377,-0.424 -0.566,-1.101 -0.566,-2.028 l 0,-16.144 c 0,-0.947 0.193,-1.628 0.58,-2.043 0.385,-0.415 1.01,-0.623 1.873,-0.623 l 6.471,0 c 0.953,0 1.779,0.064 2.479,0.191 0.699,0.127 1.325,0.371 1.88,0.732 0.473,0.303 0.89,0.686 1.254,1.149 0.362,0.464 0.64,0.977 0.83,1.538 0.191,0.562 0.286,1.154 0.286,1.779 0,2.148 -0.999,3.721 -2.997,4.717 2.625,0.899 3.938,2.647 3.938,5.245 0,1.201 -0.286,2.282 -0.858,3.245 -0.572,0.961 -1.345,1.672 -2.315,2.131 -0.609,0.273 -1.309,0.467 -2.099,0.578 -0.79,0.115 -1.712,0.171 -2.766,0.171 z m -4.509,-18.208 0,5.551 3.705,0 c 1.008,0 1.787,-0.102 2.336,-0.307 0.55,-0.205 0.97,-0.596 1.261,-1.172 0.228,-0.41 0.341,-0.869 0.341,-1.377 0,-1.084 -0.359,-1.805 -1.076,-2.161 -0.718,-0.356 -1.812,-0.534 -3.283,-0.534 l -3.284,0 z m 4.209,8.671 -4.209,0 0,6.27 4.346,0 c 2.733,0 4.101,-1.06 4.101,-3.179 0,-1.084 -0.354,-1.87 -1.063,-2.358 -0.708,-0.488 -1.767,-0.733 -3.175,-0.733 z"
                 id="path415" /><path
                 style="fill:#003564"
                 inkscape:connector-curvature="0"
                 d="m 265.718,164.81 -1.417,0 0,6.899 c 0,0.908 -0.186,1.577 -0.559,2.007 -0.372,0.43 -0.857,0.645 -1.457,0.645 -0.646,0 -1.145,-0.225 -1.499,-0.674 -0.354,-0.449 -0.531,-1.108 -0.531,-1.978 l 0,-16.524 c 0,-0.938 0.195,-1.615 0.586,-2.035 0.39,-0.42 1.021,-0.631 1.894,-0.631 l 6.58,0 c 0.908,0 1.685,0.042 2.33,0.125 0.645,0.083 1.226,0.252 1.743,0.506 0.626,0.283 1.181,0.688 1.662,1.215 0.481,0.527 0.847,1.141 1.097,1.839 0.25,0.698 0.375,1.438 0.375,2.22 0,1.602 -0.421,2.881 -1.261,3.838 -0.841,0.957 -2.114,1.636 -3.821,2.035 0.717,0.41 1.403,1.017 2.057,1.817 0.654,0.801 1.238,1.653 1.751,2.556 0.513,0.904 0.913,1.719 1.198,2.447 0.287,0.727 0.43,1.228 0.43,1.501 0,0.283 -0.084,0.563 -0.252,0.843 -0.168,0.277 -0.397,0.498 -0.688,0.658 -0.291,0.162 -0.627,0.242 -1.009,0.242 -0.454,0 -0.835,-0.115 -1.144,-0.344 -0.31,-0.23 -0.575,-0.521 -0.797,-0.872 -0.223,-0.352 -0.525,-0.869 -0.906,-1.553 l -1.621,-2.9 c -0.582,-1.064 -1.102,-1.875 -1.561,-2.432 -0.459,-0.557 -0.924,-0.938 -1.396,-1.144 -0.472,-0.204 -1.067,-0.306 -1.784,-0.306 z m 2.315,-9.023 -3.732,0 0,5.902 3.624,0 c 0.972,0 1.789,-0.09 2.452,-0.271 0.662,-0.181 1.17,-0.488 1.52,-0.923 0.35,-0.435 0.523,-1.033 0.523,-1.795 0,-0.596 -0.141,-1.12 -0.422,-1.574 -0.281,-0.454 -0.672,-0.793 -1.172,-1.018 -0.473,-0.214 -1.402,-0.321 -2.793,-0.321 z"
                 id="path417" /></g><g
               enable-background="new    "
               id="g419"><path
                 style="fill:#003564"
                 inkscape:connector-curvature="0"
                 d="m 289.136,152.154 c 2.07,0 3.848,0.451 5.332,1.354 1.485,0.903 2.609,2.188 3.373,3.853 0.763,1.665 1.144,3.621 1.144,5.867 0,1.66 -0.209,3.169 -0.627,4.526 -0.418,1.357 -1.044,2.534 -1.88,3.53 -0.836,0.996 -1.861,1.758 -3.078,2.285 -1.217,0.527 -2.611,0.791 -4.183,0.791 -1.562,0 -2.961,-0.271 -4.196,-0.812 -1.234,-0.543 -2.266,-1.307 -3.092,-2.293 -0.826,-0.986 -1.451,-2.173 -1.873,-3.56 -0.423,-1.387 -0.634,-2.886 -0.634,-4.497 0,-1.65 0.22,-3.164 0.661,-4.541 0.439,-1.377 1.078,-2.549 1.914,-3.516 0.835,-0.967 1.852,-1.707 3.051,-2.22 1.199,-0.513 2.562,-0.767 4.088,-0.767 z m 5.749,11.045 c 0,-1.572 -0.236,-2.936 -0.709,-4.088 -0.472,-1.152 -1.146,-2.023 -2.022,-2.614 -0.876,-0.591 -1.882,-0.886 -3.017,-0.886 -0.809,0 -1.557,0.163 -2.242,0.49 -0.685,0.327 -1.275,0.803 -1.771,1.428 -0.496,0.625 -0.886,1.424 -1.171,2.396 -0.287,0.972 -0.43,2.063 -0.43,3.274 0,1.221 0.143,2.324 0.43,3.311 0.285,0.986 0.689,1.805 1.212,2.453 0.522,0.65 1.122,1.136 1.798,1.458 0.677,0.322 1.419,0.483 2.228,0.483 1.036,0 1.987,-0.278 2.854,-0.835 0.867,-0.557 1.557,-1.416 2.07,-2.578 0.513,-1.162 0.77,-2.593 0.77,-4.292 z"
                 id="path421" /></g><g
               enable-background="new    "
               id="g423"><path
                 style="fill:#003564"
                 inkscape:connector-curvature="0"
                 d="m 316.921,170.611 -3.229,-12.877 -3.27,12.877 c -0.255,0.977 -0.456,1.678 -0.606,2.102 -0.149,0.426 -0.411,0.807 -0.783,1.143 -0.372,0.338 -0.867,0.506 -1.484,0.506 -0.5,0 -0.911,-0.1 -1.233,-0.301 -0.322,-0.199 -0.584,-0.482 -0.783,-0.85 -0.2,-0.365 -0.363,-0.801 -0.49,-1.303 -0.128,-0.504 -0.241,-0.97 -0.341,-1.399 l -3.324,-14.458 c -0.2,-0.84 -0.3,-1.48 -0.3,-1.92 0,-0.557 0.182,-1.025 0.545,-1.406 0.363,-0.381 0.812,-0.57 1.349,-0.57 0.736,0 1.23,0.254 1.485,0.762 0.254,0.508 0.477,1.244 0.667,2.211 l 2.616,12.54 2.929,-11.733 c 0.218,-0.898 0.413,-1.582 0.586,-2.051 0.172,-0.469 0.454,-0.875 0.845,-1.217 0.391,-0.342 0.922,-0.512 1.594,-0.512 0.681,0 1.21,0.178 1.587,0.534 0.377,0.356 0.638,0.745 0.783,1.165 0.145,0.42 0.341,1.113 0.586,2.08 l 2.956,11.733 2.616,-12.54 c 0.127,-0.654 0.247,-1.166 0.36,-1.537 0.114,-0.371 0.309,-0.703 0.586,-0.996 0.277,-0.293 0.679,-0.439 1.206,-0.439 0.526,0 0.974,0.188 1.342,0.563 0.367,0.376 0.552,0.847 0.552,1.413 0,0.4 -0.101,1.041 -0.3,1.92 l -3.324,14.458 c -0.227,0.977 -0.415,1.692 -0.565,2.146 -0.149,0.455 -0.404,0.853 -0.763,1.194 -0.359,0.342 -0.865,0.513 -1.519,0.513 -0.618,0 -1.113,-0.166 -1.485,-0.498 -0.372,-0.332 -0.631,-0.705 -0.776,-1.121 -0.148,-0.415 -0.352,-1.126 -0.615,-2.132 z"
                 id="path425" /><path
                 style="fill:#003564"
                 inkscape:connector-curvature="0"
                 d="m 344.126,167.549 c 0,1.299 -0.311,2.466 -0.933,3.501 -0.622,1.035 -1.533,1.846 -2.731,2.432 -1.199,0.586 -2.62,0.879 -4.265,0.879 -1.971,0 -3.596,-0.4 -4.877,-1.201 -0.908,-0.576 -1.646,-1.346 -2.214,-2.307 -0.567,-0.963 -0.851,-1.897 -0.851,-2.806 0,-0.527 0.17,-0.979 0.511,-1.354 0.34,-0.377 0.773,-0.564 1.301,-0.564 0.427,0 0.788,0.146 1.083,0.439 0.295,0.293 0.547,0.728 0.756,1.304 0.254,0.684 0.529,1.255 0.824,1.714 0.295,0.459 0.711,0.838 1.247,1.135 0.535,0.299 1.239,0.447 2.111,0.447 1.198,0 2.173,-0.301 2.922,-0.9 0.749,-0.602 1.124,-1.351 1.124,-2.249 0,-0.713 -0.202,-1.292 -0.606,-1.735 -0.404,-0.445 -0.926,-0.785 -1.566,-1.02 -0.64,-0.235 -1.496,-0.482 -2.568,-0.746 -1.435,-0.361 -2.636,-0.784 -3.603,-1.268 -0.968,-0.483 -1.735,-1.143 -2.303,-1.978 -0.568,-0.835 -0.852,-1.872 -0.852,-3.112 0,-1.182 0.3,-2.232 0.899,-3.15 0.599,-0.918 1.467,-1.623 2.602,-2.116 1.136,-0.493 2.471,-0.739 4.006,-0.739 1.226,0 2.286,0.163 3.181,0.49 0.895,0.327 1.637,0.762 2.228,1.304 0.59,0.542 1.021,1.11 1.294,1.706 0.273,0.596 0.409,1.178 0.409,1.744 0,0.518 -0.171,0.983 -0.512,1.398 -0.34,0.415 -0.765,0.623 -1.273,0.623 -0.463,0 -0.815,-0.125 -1.056,-0.374 -0.241,-0.249 -0.502,-0.657 -0.783,-1.224 -0.363,-0.811 -0.8,-1.442 -1.308,-1.896 -0.509,-0.454 -1.326,-0.682 -2.452,-0.682 -1.045,0 -1.887,0.247 -2.527,0.74 -0.64,0.493 -0.961,1.086 -0.961,1.779 0,0.43 0.109,0.801 0.327,1.113 0.218,0.312 0.518,0.582 0.899,0.807 0.381,0.225 0.768,0.4 1.158,0.527 0.39,0.127 1.035,0.312 1.935,0.557 1.126,0.283 2.146,0.596 3.058,0.938 0.913,0.342 1.689,0.756 2.33,1.244 0.64,0.489 1.14,1.106 1.498,1.854 0.359,0.746 0.538,1.662 0.538,2.746 z"
                 id="path427" /><path
                 style="fill:#003564"
                 inkscape:connector-curvature="0"
                 d="m 360.719,155.875 -9.114,0 0,5.273 8.392,0 c 0.618,0 1.079,0.148 1.383,0.446 0.305,0.298 0.457,0.69 0.457,1.179 0,0.489 -0.15,0.887 -0.45,1.194 -0.3,0.307 -0.763,0.462 -1.39,0.462 l -8.392,0 0,6.108 9.428,0 c 0.635,0 1.114,0.159 1.437,0.476 0.322,0.318 0.484,0.74 0.484,1.268 0,0.508 -0.162,0.92 -0.484,1.238 -0.322,0.316 -0.802,0.476 -1.437,0.476 l -10.994,0 c -0.881,0 -1.515,-0.21 -1.9,-0.63 -0.387,-0.42 -0.579,-1.099 -0.579,-2.036 l 0,-16.144 c 0,-0.625 0.086,-1.135 0.259,-1.53 0.173,-0.395 0.442,-0.684 0.811,-0.864 0.369,-0.18 0.838,-0.271 1.41,-0.271 l 10.681,0 c 0.645,0 1.124,0.154 1.437,0.462 0.313,0.308 0.471,0.71 0.471,1.208 0,0.508 -0.157,0.916 -0.471,1.224 -0.314,0.306 -0.794,0.461 -1.439,0.461 z"
                 id="path429" /><path
                 style="fill:#003564"
                 inkscape:connector-curvature="0"
                 d="m 371.603,164.81 -1.417,0 0,6.899 c 0,0.908 -0.186,1.577 -0.559,2.007 -0.372,0.43 -0.858,0.645 -1.457,0.645 -0.646,0 -1.145,-0.225 -1.499,-0.674 -0.354,-0.449 -0.531,-1.108 -0.531,-1.978 l 0,-16.524 c 0,-0.938 0.195,-1.615 0.586,-2.035 0.391,-0.42 1.021,-0.631 1.894,-0.631 l 6.58,0 c 0.908,0 1.685,0.042 2.329,0.125 0.646,0.083 1.227,0.252 1.744,0.506 0.627,0.283 1.181,0.688 1.662,1.215 0.481,0.527 0.847,1.141 1.097,1.839 0.249,0.698 0.374,1.438 0.374,2.22 0,1.602 -0.42,2.881 -1.26,3.838 -0.84,0.957 -2.114,1.636 -3.821,2.035 0.718,0.41 1.403,1.017 2.058,1.817 0.653,0.801 1.237,1.653 1.75,2.556 0.513,0.904 0.913,1.719 1.199,2.447 0.286,0.727 0.429,1.228 0.429,1.501 0,0.283 -0.084,0.563 -0.252,0.843 -0.168,0.277 -0.397,0.498 -0.688,0.658 -0.291,0.162 -0.627,0.242 -1.009,0.242 -0.454,0 -0.835,-0.115 -1.145,-0.344 -0.309,-0.23 -0.574,-0.521 -0.797,-0.872 -0.223,-0.351 -0.524,-0.869 -0.905,-1.553 l -1.621,-2.9 c -0.582,-1.064 -1.102,-1.875 -1.561,-2.432 -0.458,-0.557 -0.924,-0.938 -1.396,-1.144 -0.471,-0.204 -1.066,-0.306 -1.784,-0.306 z m 2.317,-9.023 -3.733,0 0,5.902 3.624,0 c 0.972,0 1.789,-0.09 2.452,-0.271 0.663,-0.181 1.169,-0.488 1.519,-0.923 0.35,-0.435 0.524,-1.033 0.524,-1.795 0,-0.596 -0.141,-1.12 -0.422,-1.574 -0.281,-0.454 -0.672,-0.793 -1.172,-1.018 -0.472,-0.214 -1.404,-0.321 -2.792,-0.321 z"
                 id="path431" /></g></g></g></g></g><g
       id="g3-0"
       transform="matrix(0.61390955,0,0,0.61390955,-40.748731,-29.316099)"><g
         id="g5"><path
           inkscape:connector-curvature="0"
           d="m 267.428,321.216 c 11.829,0 19.386,-6.98 19.386,-20.125 0,-12.979 -7.721,-19.963 -19.386,-19.963 l -8.789,0 0,40.088 8.789,0 z m -19.304,-45.754 c 0,-2.219 1.15,-3.451 3.367,-3.451 l 16.512,0 c 17.99,0 29.736,10.68 29.736,29.08 0,18.4 -11.746,29.244 -29.736,29.244 l -16.512,0 c -2.217,0 -3.367,-1.15 -3.367,-3.451 l 0,-51.422 z"
           id="path7"
           style="fill:#003564" /><path
           inkscape:connector-curvature="0"
           d="m 334.208,306.759 -5.175,-15.609 c -0.985,-3.285 -2.3,-9.035 -2.3,-9.035 l -0.165,0 c 0,0 -1.314,5.75 -2.3,9.035 l -5.258,15.609 15.198,0 z m -14.047,-31.955 c 0.657,-1.889 1.891,-2.793 3.861,-2.793 l 5.257,0 c 1.972,0 3.286,0.904 3.86,2.793 l 18.236,51.588 c 0.821,2.381 -0.246,3.943 -2.793,3.943 l -3.777,0 c -1.973,0 -3.287,-0.904 -3.861,-2.793 l -4.107,-12.158 -20.455,0 -4.025,12.076 c -0.574,1.971 -1.889,2.875 -3.86,2.875 l -3.778,0 c -2.547,0 -3.615,-1.562 -2.793,-3.943 l 18.235,-51.588 z"
           id="path9"
           style="fill:#003564" /><path
           inkscape:connector-curvature="0"
           d="m 379.464,299.366 c 5.668,0 9.201,-3.533 9.201,-9.283 0,-3.697 -1.396,-6.654 -4.6,-7.967 -1.396,-0.66 -3.204,-0.988 -6.326,-0.988 l -7.803,0 0,18.238 9.528,0 z m -20.043,-23.904 c 0,-2.219 1.15,-3.451 3.369,-3.451 l 15.771,0 c 5.75,0 8.625,0.492 11.089,1.561 5.915,2.465 9.776,8.051 9.776,15.936 0,6.9 -3.614,13.473 -9.693,15.938 l 0,0.164 c 0,0 0.74,0.904 1.889,3.039 l 9.612,17.58 c 1.396,2.381 0.326,4.107 -2.383,4.107 l -4.437,0 c -1.889,0 -3.119,-0.74 -4.025,-2.383 l -10.268,-19.385 -10.186,0 0,18.316 c 0,2.301 -1.15,3.451 -3.369,3.451 l -3.777,0 c -2.219,0 -3.369,-1.15 -3.369,-3.451 l 0,-51.422 z"
           id="path11"
           style="fill:#003564" /><path
           inkscape:connector-curvature="0"
           d="m 410.837,275.462 c 0,-2.219 1.151,-3.451 3.368,-3.451 l 3.78,0 c 2.218,0 3.367,1.232 3.367,3.451 l 0,51.422 c 0,2.301 -1.149,3.451 -3.367,3.451 l -3.78,0 c -2.217,0 -3.368,-1.15 -3.368,-3.451 l 0,-51.422 z"
           id="path13"
           style="fill:#003564" /><path
           inkscape:connector-curvature="0"
           d="m 461.683,306.759 -5.175,-15.609 c -0.985,-3.285 -2.3,-9.035 -2.3,-9.035 l -0.164,0 c 0,0 -1.314,5.75 -2.3,9.035 l -5.257,15.609 15.196,0 z m -14.046,-31.955 c 0.656,-1.889 1.89,-2.793 3.861,-2.793 l 5.256,0 c 1.974,0 3.288,0.904 3.86,2.793 l 18.236,51.588 c 0.821,2.381 -0.246,3.943 -2.793,3.943 l -3.777,0 c -1.971,0 -3.285,-0.904 -3.86,-2.793 l -4.106,-12.158 -20.455,0 -4.026,12.076 c -0.573,1.971 -1.888,2.875 -3.858,2.875 l -3.781,0 c -2.545,0 -3.613,-1.562 -2.791,-3.943 l 18.234,-51.588 z"
           id="path15"
           style="fill:#003564" /><path
           inkscape:connector-curvature="0"
           d="m 486.896,275.462 c 0,-2.219 1.15,-3.451 3.367,-3.451 l 3.78,0 c 2.218,0 3.367,1.232 3.367,3.451 l 0,21.275 26.696,0 0,-21.275 c 0,-2.219 1.151,-3.451 3.451,-3.451 l 3.697,0 c 2.219,0 3.367,1.232 3.367,3.451 l 0,51.422 c 0,2.301 -1.148,3.451 -3.367,3.451 l -3.697,0 c -2.3,0 -3.451,-1.15 -3.451,-3.451 l 0,-21.029 -26.696,0 0,21.029 c 0,2.301 -1.149,3.451 -3.367,3.451 l -3.78,0 c -2.217,0 -3.367,-1.15 -3.367,-3.451 l 0,-51.422 z"
           id="path17"
           style="fill:#003564" /><path
           inkscape:connector-curvature="0"
           d="m 546.117,307.991 0,-2.301 c 0,-2.217 1.231,-3.367 3.451,-3.367 l 17.823,0 c 2.221,0 3.453,1.15 3.453,3.367 l 0,2.301 c 0,2.299 -1.232,3.449 -3.453,3.449 l -17.823,0 c -2.219,0 -3.451,-1.15 -3.451,-3.449"
           id="path19"
           style="fill:#003564" /><path
           inkscape:connector-curvature="0"
           d="m 601.645,321.216 c 11.829,0 19.387,-6.98 19.387,-20.125 0,-12.979 -7.722,-19.963 -19.387,-19.963 l -8.79,0 0,40.088 8.79,0 z m -19.306,-45.754 c 0,-2.219 1.151,-3.451 3.368,-3.451 l 16.513,0 c 17.989,0 29.736,10.68 29.736,29.08 0,18.4 -11.747,29.244 -29.736,29.244 l -16.513,0 c -2.217,0 -3.368,-1.15 -3.368,-3.451 l 0,-51.422 z"
           id="path21"
           style="fill:#003564" /><path
           inkscape:connector-curvature="0"
           d="m 642.137,275.462 c 0,-2.219 1.151,-3.451 3.368,-3.451 l 28.093,0 c 2.22,0 3.451,1.232 3.451,3.451 l 0,2.299 c 0,2.219 -1.231,3.367 -3.451,3.367 l -20.945,0 0,15.279 16.265,0 c 2.217,0 3.449,1.15 3.449,3.369 l 0,2.301 c 0,2.299 -1.232,3.447 -3.449,3.447 l -16.265,0 0,15.691 22.26,0 c 2.22,0 3.452,1.15 3.452,3.367 l 0,2.301 c 0,2.301 -1.232,3.451 -3.452,3.451 l -29.407,0 c -2.217,0 -3.368,-1.15 -3.368,-3.451 l 0,-51.421 z"
           id="path23"
           style="fill:#003564" /><path
           inkscape:connector-curvature="0"
           d="m 213.113,198.907 c 0,-10.174 13.099,-16.463 21.722,-21.688 6.775,4.126 22.577,11.591 22.58,22.297 0.004,11.884 -4.943,31.255 -8.877,31.339 -4.279,0.094 -10.191,-24.552 -13.338,-24.487 -3.145,0.066 -9,24.587 -12.947,24.581 -4.285,-0.007 -9.14,-20.969 -9.14,-32.042"
           id="path25"
           style="fill:#3d4365" /><path
           inkscape:connector-curvature="0"
           d="m 178.023,256.302 c -9.676,-3.146 -11.608,-17.547 -13.913,-27.361 6.018,-5.17 18,-17.892 28.184,-14.587 11.303,3.67 28.197,14.358 27.061,18.128 -1.23,4.098 -26.499,2.105 -27.408,5.117 -0.912,3.012 20.601,16.158 19.375,19.912 -1.331,4.07 -22.766,2.211 -33.299,-1.209"
           id="path27"
           style="fill:#707294" /><path
           inkscape:connector-curvature="0"
           d="m 221.765,307.407 c -5.982,8.229 -20.272,5.617 -30.32,4.779 -3.058,-7.32 -11.452,-22.65 -5.164,-31.312 6.984,-9.615 22.371,-22.377 25.603,-20.135 3.517,2.436 -6.187,25.852 -3.601,27.648 2.582,1.799 21.734,-14.6 24.924,-12.273 3.46,2.522 -4.933,22.334 -11.442,31.293"
           id="path29"
           style="fill:#003564" /><path
           inkscape:connector-curvature="0"
           d="m 278.537,214.539 c 9.679,-3.144 19.706,7.37 27.341,13.958 -1.83,7.717 -4.046,25.053 -14.227,28.363 -11.303,3.678 -31.253,4.959 -32.549,1.244 -1.413,-4.041 20.199,-17.283 19.166,-20.254 -1.032,-2.971 -26.166,-0.961 -27.379,-4.717 -1.318,-4.079 17.12,-15.171 27.648,-18.594"
           id="path31"
           style="fill:#434e79" /></g></g></g></svg>